File,AcceptedFamily,AcceptedGenus,AcceptedTaxonName,AcceptedAuthority,SynonymTaxonNames,FNATreeText,Native,IntroducedText
/Users/jocelynpender/fna/fna-data/fna-data-curation/coarse_grained_fna_xml/V4/V4_193.xml,Cactaceae,Pereskia,Pereskia grandifolia var. grandifolia,Haworth unknown,,"trees, erect, 2–10 m. stems to 20 cm diam., very s",Introduced,Introduced; Fla.; South America (Brazil).
/Users/jocelynpender/fna/fna-data/fna-data-curation/coarse_grained_fna_xml/V4/V4_152.xml,Nyctaginaceae,Pisonia,Pisonia capitata,(S. Watson) Standley,,"trees, to 6 m; branches dense, spreading at right ",Native,
/Users/jocelynpender/fna/fna-data/fna-data-curation/coarse_grained_fna_xml/V4/V4_218.xml,Cactaceae,Cylindropuntia,Cylindropuntia abyssi,(Hester) Backeberg,,"trees and shrubs, openly branched, to 1 m. stem se",Native,
/Users/jocelynpender/fna/fna-data/fna-data-curation/coarse_grained_fna_xml/V4/V4_219.xml,Cactaceae,Cylindropuntia,Cylindropuntia munzii,(C. B. Wolf) Backeberg,,"trees or treelike shrubs, with trunk(s) and main b",Native,
/Users/jocelynpender/fna/fna-data/fna-data-curation/coarse_grained_fna_xml/V4/V4_225.xml,Cactaceae,Cylindropuntia,Cylindropuntia acanthocarpa var. coloradensis,(Engelmann & J. M. Bigelow) F. M. Knuth in C. Backeberg and F. M. Knuth (L. D. Benson) Pinkava,,"trees or sometimes shrubs, with few branches, usua",Native,
/Users/jocelynpender/fna/fna-data/fna-data-curation/coarse_grained_fna_xml/V4/V4_153.xml,Nyctaginaceae,Pisonia,Pisonia rotundata,Grisebach,,"trees, densely branched, to 5 m. stems velvety whe",Native,
/Users/jocelynpender/fna/fna-data/fna-data-curation/coarse_grained_fna_xml/V4/V4_221.xml,Cactaceae,Cylindropuntia,Cylindropuntia echinocarpa,(Engelmann & J. M. Bigelow) F. M. Knuth in C. Backeberg and F. M. Knuth,Cactus echinocarpus (Engelmann & Bigelow) Lemaire;Cylindropuntia wigginsii (L. D. Benson) H. Robinson;Opuntia wigginsii L. D. Benson,"trees or shrubs, spreading, densely branched, 0.5–",Native,
/Users/jocelynpender/fna/fna-data/fna-data-curation/coarse_grained_fna_xml/V4/V4_156.xml,Nyctaginaceae,Guapira,Guapira obtusata,(Jacquin) Little,,"trees or shrubs, to 8 m. stems and buds densely re",Native,
/Users/jocelynpender/fna/fna-data/fna-data-curation/coarse_grained_fna_xml/V4/V4_197.xml,Cactaceae,Cylindropuntia,Cylindropuntia arbuscula,(Engelmann) F. M. Knuth in C. Backeberg and F. M. Knuth,,"trees or shrubs, densely branched, 0.5–3 m. stem s",Native,
/Users/jocelynpender/fna/fna-data/fna-data-curation/coarse_grained_fna_xml/V4/V4_222.xml,Cactaceae,Cylindropuntia,Cylindropuntia acanthocarpa,(Engelmann & J. M. Bigelow) F. M. Knuth in C. Backeberg and F. M. Knuth,,"trees or shrubs, sparsely to densely branched, 1–2",Native,
/Users/jocelynpender/fna/fna-data/fna-data-curation/coarse_grained_fna_xml/V4/V4_223.xml,Cactaceae,Cylindropuntia,Cylindropuntia acanthocarpa var. acanthocarpa,(Engelmann & J. M. Bigelow) F. M. Knuth in C. Backeberg and F. M. Knuth unknown,,"trees, with few branches, usually at acute angles.",Native,
/Users/jocelynpender/fna/fna-data/fna-data-curation/coarse_grained_fna_xml/V4/V4_155.xml,Nyctaginaceae,Guapira,Guapira discolor,(Sprengel) Little,Guapira bracei (Britton) Little;Guapira floridana (Britton) Lundell;Guapira globosa (Small) Little;Guapira longifolia (Heimerl) Little,"trees or shrubs, to 15 m. stems and buds glabrate ",Native,
/Users/jocelynpender/fna/fna-data/fna-data-curation/coarse_grained_fna_xml/V4/V4_196.xml,Cactaceae,Cylindropuntia,Cylindropuntia leptocaulis,(de Candolle) F. M. Knuth in C. Backeberg and F. M. Knuth,Cylindropuntia leptocaulis var. brevispina Nuttall (Engelma nn) F. M. Knuth;Cylindropuntia leptocaulis var. longispina (Engelmann) Engelmann (Engelmann) F. M. Knuth;Opuntia fragilis var. frutescens va r. brevispina (Engelmann) S. Watson Engelmann;Opuntia frutescens Engelmann;Opuntia frutescens var. brevispina unknown Engelmann;Opuntia frutescens var. longispina unknown Engelmann;Opuntia leptocaulis unknown;Opuntia leptocaulis var. longispina unknown (Engelmann) A. Berger;Opuntia leptocaulis var. vaginata unknown (Engelmann) S. Watson;Opuntia vaginata unknown,"trees, sparingly to densely branched, 0.5–1.8 m, u",Native,
/Users/jocelynpender/fna/fna-data/fna-data-curation/coarse_grained_fna_xml/V4/V4_244.xml,Cactaceae,Opuntia,Opuntia humifusa var. ammophila,(Rafinesque) Rafinesque (Small) L. D. Benson,Opuntia compressa var. ammophila (Salisbury) J. F. Macbride (Small) L. D. Benson,"trees, erect, to 2 m, often with short trunk, usua",Native,
/Users/jocelynpender/fna/fna-data/fna-data-curation/coarse_grained_fna_xml/V4/V4_292.xml,Cactaceae,Consolea,Consolea corallicola,Small,Opuntia corallic ola (Small) Werdermann,"trees to 2 m; trunk ± elliptic in cross section, h",Native,
/Users/jocelynpender/fna/fna-data/fna-data-curation/coarse_grained_fna_xml/V4/V4_290.xml,Cactaceae,Nopalea,Nopalea cochenillifera,(Linnaeus) Salm-Dyck,Opuntia cochenillifera (Linnaeus) Miller,trees to 4–5 m; trunks 15–20 cm diam. stem segment,Introduced,"Introduced; Fla.; Mexico; West Indies (Cuba, Puerto Rico); Central America (Panama)."
/Users/jocelynpender/fna/fna-data/fna-data-curation/coarse_grained_fna_xml/V4/V4_252.xml,Cactaceae,Opuntia,Opuntia engelmannii,Salm-Dyck ex Engelmann,,"trees, with short trunk, spreading to sometimes de",Native,
/Users/jocelynpender/fna/fna-data/fna-data-curation/coarse_grained_fna_xml/V4/V4_335.xml,Cactaceae,Hylocereus,Hylocereus undatus,(Haworth) Britton & Rose in N. L. Britton,,"trees. stems usually sharply 3-angled, to 500+ × 4",Introduced,Introduced; Fla.; Mexico; West Indies; Central America; n South America.
/Users/jocelynpender/fna/fna-data/fna-data-curation/coarse_grained_fna_xml/V4/V4_265.xml,Cactaceae,Opuntia,Opuntia oricola,Philbrick,,"trees or shrubs, spreading, 2–3 m; trunk, when pre",Native,
/Users/jocelynpender/fna/fna-data/fna-data-curation/coarse_grained_fna_xml/V4/V4_271.xml,Cactaceae,Opuntia,Opuntia ficus-indica,(Linnaeus) Miller,Cactus opuntia Linnaeus;Opuntia compressa J. F. Macbride;Opuntia vulgaris Miller,"trees, 3–6 m; trunk to 30–45 cm diam. stem segment",Introduced,"Introduced; Ariz., Calif.; Mexico."
/Users/jocelynpender/fna/fna-data/fna-data-curation/coarse_grained_fna_xml/V4/V4_270.xml,Cactaceae,Opuntia,Opuntia rufida,Engelmann,Opuntia microdasys var. rufida (Lehmann) Pfeiffer (Engelmann) K. Schumann;Opuntia rufida var. tortiflora unknown M. S. Anthony,"trees, with short trunk, many branched, 0.5–1.5 m.",Native,
/Users/jocelynpender/fna/fna-data/fna-data-curation/coarse_grained_fna_xml/V4/V4_264.xml,Cactaceae,Opuntia,Opuntia ×spinosibacca,M. S. Anthony,Opuntia phaeacantha var. spinosibacca Engelmann (M. S. Anthony) L. D. Benson,"trees, erect, to 1.5 m. stem segments not easily d",Native,
/Users/jocelynpender/fna/fna-data/fna-data-curation/coarse_grained_fna_xml/V4/V4_273.xml,Cactaceae,Opuntia,Opuntia aureispina,(S. Brack & K. D. Heil) Pinkava & B. D. Parfitt,,"trees, with short spiny trunks, erect, to 1(–1.5) ",Native,
/Users/jocelynpender/fna/fna-data/fna-data-curation/coarse_grained_fna_xml/V4/V4_263.xml,Cactaceae,Opuntia,Opuntia ×curvispina,Griffiths,,"trees, shrubby, 0.5–1.5 m, with trunk to 20 cm. st",Native,
/Users/jocelynpender/fna/fna-data/fna-data-curation/coarse_grained_fna_xml/V4/V4_260.xml,Cactaceae,Opuntia,Opuntia santa-rita,(Griffiths & Hare) Rose,Opuntia violacea var. santa-rita Engelmann ex B. D. Jack son (Griffiths & Hare) L. D. Benson,"trees, with short trunk, erect, to 2 m. stem segme",Native,
/Users/jocelynpender/fna/fna-data/fna-data-curation/coarse_grained_fna_xml/V4/V4_249.xml,Cactaceae,Opuntia,Opuntia chlorotica,Engelmann & J. M. Bigelow,,"trees or shrubs, erect, 2–2.5 m, with spiny, well-",Native,
/Users/jocelynpender/fna/fna-data/fna-data-curation/coarse_grained_fna_xml/V4/V4_212.xml,Cactaceae,Cylindropuntia,Cylindropuntia imbricata,(Haworth) F. M. Knuth in C. Backeberg and F. M. Knuth,Opuntia imbricata (Haworth) de Candolle,"trees, with short trunks, or large shrubs, widely ",Native,
/Users/jocelynpender/fna/fna-data/fna-data-curation/coarse_grained_fna_xml/V4/V4_213.xml,Cactaceae,Cylindropuntia,Cylindropuntia imbricata var. imbricata,(Haworth) F. M. Knuth in C. Backeberg and F. M. Knuth unknown,Cactus cylindricus James;Opuntia arborescens Engelmann;Opuntia vexans Griffiths,"trees, with short trunks, openly branched, 3(–5) m",Native,
/Users/jocelynpender/fna/fna-data/fna-data-curation/coarse_grained_fna_xml/V4/V4_207.xml,Cactaceae,Cylindropuntia,Cylindropuntia bigelovii var. bigelovii,(Engelmann) F. M. Knuth in C. Backeberg and F. M. Knuth unknown,,"trees, densely branched, with older branches at ba",Native,
/Users/jocelynpender/fna/fna-data/fna-data-curation/coarse_grained_fna_xml/V4/V4_211.xml,Cactaceae,Cylindropuntia,Cylindropuntia spinosior,(Engelmann) F. M. Knuth in C. Backeberg and F. M. Knuth,Opuntia spinosior (Engelmann) Toumey;Opuntia spinosior var. neomexicana unknown Toumey,"trees, compact, widely branching, 0.4–2 m. stem se",Native,
/Users/jocelynpender/fna/fna-data/fna-data-curation/coarse_grained_fna_xml/V4/V4_205.xml,Cactaceae,Cylindropuntia,Cylindropuntia versicolor,(Engelmann ex J. M. Coulter) F. M. Knuth in C. Backeberg and F. M. Knuth,Opuntia arborescens var. versicolor Engelmann (Engelmann ex J. M. Coulter) Dams;Opuntia thurberi ssp. versicolor Engelmann (Engelmann ex J. M. Coulter) Felger & Lowe,"trees or shrubs, openly branching at acute angles,",Native,
/Users/jocelynpender/fna/fna-data/fna-data-curation/coarse_grained_fna_xml/V4/V4_204.xml,Cactaceae,Cylindropuntia,Cylindropuntia prolifera,(Engelmann) F. M. Knuth in C. Backeberg and F. M. Knuth,,"trees, erect, 0.6–2.5 m. stem segments easily deta",Native,
/Users/jocelynpender/fna/fna-data/fna-data-curation/coarse_grained_fna_xml/V4/V4_210.xml,Cactaceae,Cylindropuntia,Cylindropuntia whipplei,(Engelmann & J. M. Bigelow) F. M. Knuth in C. Backeberg and F. M. Knuth,Cylindropuntia hualpaensis Backeberg;Cylindropuntia whipplei var. enodis unknown (Peebles) Backeberg;Opuntia whipplei var. enodis unknown Peebles;Opuntia whipplei var. laevior unknown Engelmann,"trees or shrubs, low to upright, sparingly to dens",Native,
/Users/jocelynpender/fna/fna-data/fna-data-curation/coarse_grained_fna_xml/V4/V4_348.xml,Cactaceae,Pachycereus,Pachycereus schottii,(Engelmann) D. R. Hunt,Lophocereus schottii (Engelmann) Britton & Rose;Pilocereuss chottii (Engelmann) Lemaire,"trees], with basal branches sometimes rooting to f",Native,
/Users/jocelynpender/fna/fna-data/fna-data-curation/coarse_grained_fna_xml/V4/V4_228.xml,Cactaceae,Cylindropuntia,Cylindropuntia ramosissima,(Engelmann) F. M. Knuth in C. Backeberg and F. M. Knuth,Opuntia tessellata Engelmann,"trees or shrubs, intricately branched, 0.5–2 m. st",Native,
/Users/jocelynpender/fna/fna-data/fna-data-curation/coarse_grained_fna_xml/V4/V4_200.xml,Cactaceae,Cylindropuntia,Cylindropuntia fulgida,(Engelmann) F. M. Knuth in C. Backeberg and F. M. Knuth,,trees 1–3 m; trunk divaricately branching; crown m,Native,
/Users/jocelynpender/fna/fna-data/fna-data-curation/coarse_grained_fna_xml/V4/V4_203.xml,Cactaceae,Cylindropuntia,Cylindropuntia ×kelvinensis,(V. E. Grant & K. A. Grant) P. V. Heath,,trees 1.5–2 m; trunk commonly branched; crown open,Native,
