Person,Taxa,Notes
John Myers,Acoraceae
John Myers,Alismataceae,all
John Myers,Aponogetonaceae,all
John Myers,Araceae
John Myers,Areaceae
Yevonn Wilson-Ramsey,Bromeliaceae
John Myers,Butomus umbellatus
John Myers,Cannaceae
Yevonn Wilson-Ramsey,Commelinaceae
John Myers,Cymodoceaea
Yevonn Wilson-Ramsey,Eriocaulaceae
John Myers,Heliconiaceae
John Myers,Hydrocharitaceae,all
John Myers,Hydrocleys nymphoides
Yevonn Wilson-Ramsey,Juncaceae
John Myers,Juncaginaceae
John Myers,Lemnaceae
John Myers,Limnocharis flava
John Myers,Marantaceae
Yevonn Wilson-Ramsey,Mayacaceae
John Myers,Musaceae
John Myers,Najadaceae
John Myers,Potamogetonaceae
John Myers,Ruppiaceae
John Myers,Scheuchzeriaceae
John Myers,Sparganiaceae
John Myers,Typhaceae
Yevonn Wilson-Ramsey,Xyridaceae
John Myers,Zannichlliaceae
John Myers,Zingeraceae
John Myers,Zosteraceae
