Person,Taxa,
Yevonn Wilson-Ramsey,Amaranthaceae,
Yevonn Wilson-Ramsey,Allenrolfea,
Yevonn Wilson-Ramsey,Arthrocnemum,
Yevonn Wilson-Ramsey,Axyris,
Yevonn Wilson-Ramsey,Bassia,
Yevonn Wilson-Ramsey,Beta,
Yevonn Wilson-Ramsey,Chenopodium,
Yevonn Wilson-Ramsey,Corispermum,
Yevonn Wilson-Ramsey,Dysphania,
Yevonn Wilson-Ramsey,Halogeton,
Yevonn Wilson-Ramsey,Kochia,
Yevonn Wilson-Ramsey,Salicornia,
Yevonn Wilson-Ramsey,Salsola,
Yevonn Wilson-Ramsey,Sarcocornia,
Yevonn Wilson-Ramsey,Suaeda,
John Myers,Cactaceae,
Barbara Alongi,Achatocarpaceae,
Barbara Alongi,Aizoaceae,
Barbara Alongi,Allionia,
Barbara Alongi,Mirabilis,
Barbara Alongi,Nyctaginia,
Barbara Alongi,Okenia,
Barbara Alongi,Phytolaccaceae,
Barbara Alongi,Portulacaceae,except cistanthe and portulaca
Bee F. Gunn,Basellaceae,
Bee F. Gunn,Molluginaceae,
Bee F. Gunn,Cistanthe,
Bee F. Gunn,Portulaca ,
Bee F. Gunn,Chenopodiaceae,the genera not listed by others
Bee F. Gunn,Nyctaginaceae,the genera not listed by others