%!PS-Adobe-3.0 EPSF-3.0
%%Creator: ArcView Version 3.0
%%CreationDate: Wed Sep 28 01:17:34 2005
%%DocumentProcSets: ArcView_3.0 0 0
%%DocumentSuppliedProcSets: ArcView_3.0 0 0
%%BoundingBox: 201 288 291 381                                          
%%DocumentData: Clean8Bit
%%LanguageLevel: 2
%%EndComments

%%BeginProcSet: ArcView_3.0 0 0
512 dict begin /bd{bind def}bind def /ad{add}bd /ar{arc}bd /ay{array}bd
/as{astore}bd /cl{clip}bd /ci{colorimage}bd /cc{concat}bd /cmx{concatmatrix}bd
/cp{copy}bd /cd{currentdash}bd /cf{currentfile}bd /cw{currentlinewidth}bd
/c{curveto}bd /cv{cvi}bd /cn{cvn}bd /cs{cvs}bd /cx{cvx}bd /df{def}bd
/dv{div}bd /dp{dup}bd /xc{exch}bd /ex{exec}bd /fa{false}bd /fl{fill}bd
/ff{findfont}bd /fr{for}bd /gt{get}bd /gi{getinterval}bd /gr{grestore}bd
/gs{gsave}bd /ig{image}bd /im{imagemask}bd /ix{index}bd /ln{length}bd
/l{lineto}bd /mx{matrix}bd /m{moveto}bd /mu{mul}bd /ng{neg}bd /np{newpath}bd
/pb{pathbbox}bd /pp{pop}bd /pt{put}bd /pi{putinterval}bd /rh{readhexstring}bd
/rp{repeat}bd /rl{roll}bd /rt{rotate}bd /sc{scale}bd /scf{scalefont}bd
/cmy{setcmykcolor}bd /sd{setdash}bd /sf{setfont}bd /gry{setgray}bd
/lc{setlinecap}bd /lj{setlinejoin}bd /lw{setlinewidth}bd /ml{setmiterlimit}bd
/rgb{setrgbcolor}bd /sh{show}bd /sg{string}bd /st{stroke}bd /sb{sub}bd
/tr{translate}bd /tu{true}bd /.dsArray 16 ay df /Ds{.dsArray 0 3
-1 rl gi as 0 sd}bd /.blankMtx mx df /.tempMtx mx df /.gfxMtx mx
df /InMx{.blankMtx xc cp}bd /Tr{.tempMtx InMx tr xc dp 3 1 rl cmx}bd
/Sc{.tempMtx InMx sc xc dp 3 1 rl cmx}bd /Rt{.tempMtx InMx rt xc
dp 3 1 rl cmx}bd /gryVec{ /Sg{/.kS xc df}bd /Fg{/.kF xc df}bd /Bg{/.kB
xc df}bd /S{.kS gry st}bd/F{.kF gry fl}bd/SH{.kF gry sh}bd /I{.kF
gry im}bd/i{.kB gry im}bd 0 Sg 0 Fg 0 Bg}bd /rgbVec{ /Sr{/.bS xc
df/.gS xc df/.rS xc df}bd /Fr{/.bF xc df/.gF xc df/.rF xc df}bd /Br{/.bB
xc df/.gB xc df/.rB xc df}bd /S{.rS .gS .bS rgb st}bd/F{.rF .gF .bF
rgb fl}bd/SH{.rF .gF .bF rgb sh}bd /I{.rF .gF .bF rgb im}bd/i{.rB
.gB .bB rgb im}bd 0 0 0 Sr 0 0 0 Fr 0 0 0 Br}bd /cmyVec{ /Sc{/.kS
xc df/.yS xc df/.mS xc df/.cS xc df}bd /Fc{/.kF xc df/.yF xc df/.mF
xc df/.cF xc df}bd /Bc{/.kB xc df/.yB xc df/.mB xc df/.cB xc df}bd
/S{.cS .mS .yS .kS cmy st}bd/F{.cF .mF .yF .kF cmy fl}bd /SH{.cF
.mF .yF .kF cmy sh}bd /I{.cF .mF .yF .kF cmy im}bd/i{.cB .mB .yB
.kB cmy im}bd 0 0 0 1 Sc 0 0 0 1 Fc 0 0 0 1 Bc}bd /FS{gs F gr S}bd
/lS{m l S} bd /ls{3 1 rl m 1 sb{l}rp} bd /ll{{l}rp} bd /lsS{ls S}bd
/llS{ll S}bd /lsF{ls F}bd /llF{ll F}bd /lsFS{ls gs F gr S}bd /llFS{ll
gs F gr S}bd /r{3 ix 3 ix m 1 ix 3 ix l 2 cp l 3 ix xc l pp l closepath}bd
/rS{r S}bd /rF{r F}bd /rFS{r gs F gr S}bd /e{2 dv xc 2 dv xc 2 ix
1 ix sb 3 ix 2 ix ad 5 ix 4 ix 1.32 mu sb 6 ix 5 ix 1.32 mu ad 7
-3 rl pp pp pp 4 ix 4 ix m dp 4 ix 1 ix 5 ix 8 ix 7 ix c 1 ix 3 ix
1 ix 6 ix 8 ix 8 ix c 5{pp}rp}bd /eS{e S}bd /eF{e F}bd /eFS{e gs
F gr S}bd /fT{/_fT xc df}bd /bT{/_bT xc df}bd tu fT fa bT /td{[3
ix 0 0 5 ix ng 0 7 ix]xc _bT{4 cp 4 2 rl fa 5 -2 rl i}if _fT{4 cp
4 2 rl tu 5 -2 rl I}if 4{pp}rp}bd /T{gs cl pb np 4 -2 rl xc 5 ix
dv cv 5 ix mu xc 4 ix dv cv 4 ix mu 2 cp tr 3 -1 rl xc sb 3 1 rl
sb 3 ix dv cv 1 ad xc 2 ix dv cv 1 ad 4 2 rl sc {gs dp{1 ix cx ex
1 0 tr}rp gr 0 1 tr}rp gr np pp pp}bd /TS{gs T gr S}bd /GfxObj{gs
3 1 rl .gfxMtx InMx 3 1 rl xc ng xc ng Tr xc 1 xc dv dp Sc 3 -1 rl
Rt 3 -1 rl dp Sc 4 -2 rl Tr cc ex gr}bd
%%EndProcSet
%%EndProlog
%%BeginSetup
rgbVec
%%EndSetup
6.96 6.96 6.96 783 603 783 603 6.96 6.96 6.96 5 ls cl np 1 1 1 Fr

9 dict begin
/FontType 3 def
/FontMatrix [1 1024 div 0 0 1 1024 div 0 0] def
/FontBBox [-512 -512 1024 1024] def
/Encoding 256 array def
0 1 255 {Encoding exch /.notdef put} for
/CharProcs 257 dict def
CharProcs begin /.notdef {} bind def end
/Metrics 257 dict def	Metrics begin /.notdef [1024 1024] bind def end
/BuildGlyph {2 copy exch /Metrics get exch 2 copy known not {pop /.notdef} if 
   get aload pop 0 exch 2 mul dup neg exch -512 exch 1024 setcachedevice exch /CharProcs 
   get exch 2 copy known not {pop /.notdef} if get exec} bind def
/BuildChar {1 index /Encoding get exch get 1 index /BuildGlyph get exec } bind def 
currentdict end /ESRI-Geometric-Symbols-Normal exch definefont pop

/ESRI-Geometric-Symbols-Normal ff 0.2 scf sf
/ESRI-Geometric-Symbols-Normal findfont begin 

  Encoding 35 /35 put CharProcs /35 {  0 357 m  0 457  34 542  103 611 c 
172 680  257 715  357 715 c  458 715  542 680  611 611 c  680 542 
715 457  715 357 c  715 257  680 172  611 103 c  542 34  458 0  357 0 c 
257 0  172 34  103 103 c  34 172  0 257  0 357 c  closepath  fill 
 } put   Metrics /35 [706 706] put 
end
291.5 381.5 m (#) SH gs 197.9 381.5 197.9 287.9 291.5 287.9 291.5
381.5 197.9 381.5 5 ls cl np 0.027 0.541 0.102 Fr 0.2 lw 209.9 359
210.4 358 210.8 357.6 211.1 357.6 210.8 358.8 210.2 359.5 209.9 359
7 ls S 206.3 356.7 206.3 356.6 206.3 356.8 206.2 357.1 206.3 357.3
206.2 357.3 206.1 357.2 206.1 356.8 206.3 356.7 9 ls S 209.2 353.6
209.1 353.8 208.4 354 208.3 353.7 208.6 352.9 209 352.8 209.1 352.8
209.2 353.1 209.2 353.6 9 ls S 225.2 337.7 225.3 337.9 225.1 338.4
224.8 338.5 224.5 338.4 224.3 338 224.3 337.6 224.3 336.6 224.3 336.1
224.4 335.5 224.7 336.2 224.9 336.9 224.9 337.1 224.9 337.2 225.1
337.3 225.2 337.7 16 ls S 214.2 345.2 213.3 345.2 212.8 345 212.3
344.9 212.1 344.5 212.3 344.2 212.8 344 213.5 343.9 214.3 344.5 214.5
344.8 214.7 345.1 214.2 345.2 12 ls S 227.6 356.8 227.3 357.2 226.9
357.6 226.6 358.1 226.2 358.5 225.8 358.9 225.5 359.3 225.7 359.6
224.9 360.1 224.7 360.8 224.6 361.5 224.6 361.6 223.6 361.7 222.5
361.9 222.5 361.8 222.4 361.8 221.7 361.9 221 361.9 220.4 361.9 218.9
361.5 218.1 362.2 217.6 361.7 217.5 360.7 217.4 359.6 217.6 358.7
218 357.7 218.2 357.4 218 357.1 217.5 357.1 217.3 357.5 216.7 357.8
216.2 358.2 216.2 359.1 215.4 359.3 215 360.1 213.9 360.3 213.8 359.6
213.9 359.2 214.3 358.4 213.9 358.5 213.4 358.3 213.5 357.8 213.9
357.1 214.4 356.6 214.9 356.1 215.8 356.1 216.1 355.9 216.1 355.5
215.5 355.4 215.2 354.6 214.7 354.4 213.4 354.8 213.1 355.5 211.9
355.2 210.3 354.6 210.2 353.1 209.7 352 210.6 351.4 210.5 350.5 210.2
350.4 210.1 349.6 210.7 348.8 211.6 348 212.4 347.6 212.5 347.7 211.8
347.3 210.7 346.6 209.3 346.4 207.8 346.3 207.5 346.5 206.2 346.9
205.5 346.9 205.2 346.7 205.5 346.6 205.8 346.5 206.3 346.2 206.9
346.1 207.5 346 208.2 345.8 208.9 345.3 210.2 345.6 211.2 345.4 212.3
345.8 213.5 345.6 213.8 345.8 214.6 346.1 214.5 346.8 215.8 347.2
217.2 347.5 218.1 347.4 218.6 347.3 218.3 346.8 217 346.9 216.3 346
215.9 345.9 215.7 345.8 215.7 345.5 216.2 345.4 216.7 345.3 218.3
345.3 100 ls 218.3 345.3 218.9 346 220 345.6 219.9 345.2 220.5 344.4
221.1 343.8 221.7 343.1 222.3 342.5 222.9 341.8 223.3 340.9 223.7
340 224.1 339.1 224.5 338.8 224.6 339.7 224.6 339.9 224.2 339.8 224.3
340.3 224 341.3 224.1 341.5 224 341.7 223.9 341.9 224.1 342.2 223.8
342.3 223.5 342.3 223.3 342.6 223.2 342.5 222.9 342.8 224 344.7 225
346.3 225.9 348 226.9 349.7 227.8 351.4 228.8 353.1 229.7 354.7 229.6
354.8 229.6 354.7 229.3 355.3 229 355.9 228.6 356.1 228.1 356.2 40
ll S 225.9 337.6 226 337.4 225.9 336.8 225.7 336.4 225.9 336.3 226
335.7 226.2 335.1 226.3 334.7 226 334.4 225.9 334.1 226.1 334 226.6
334.3 226.8 333.8 226.4 333.2 226.3 332.6 226.8 332.4 226.9 332.5
227 332.7 227.2 333 227.5 333.8 227.5 334.1 227.3 334.2 227.2 334.4
227.2 334.6 227 334.7 226.8 335.1 226.6 335.2 226.7 335.4 226.7 335.8
226.6 336.1 226.6 337.5 226.5 338 226.5 338.3 226.5 338.1 226.5 338.3
226.4 338.5 226.2 338.8 226.2 339.4 226.2 339.9 226 340.3 225.8 340.3
225.3 340.3 225.2 340.2 225.1 340.1 225.1 340 225 340 224.9 339.9
224.8 339.9 224.6 339.9 225 339.3 225.2 338.7 225.4 338.5 225.6 339.2
225.7 339.4 225.7 339.2 225.9 337.7 225.9 337.6 57 ls S 225.3 335.5
225.1 335.2 225 334.3 224.9 334.1 225.3 333 225.4 332.8 225.5 333
225.7 333.4 225.6 334 225.5 334.2 225.7 334.4 225.6 334.9 225.6 335
225.3 335.5 14 ls S 225.9 337.6 225.9 337.5 226 337.4 225.9 337.6
4 ls S 209.9 359 210.4 358 210.8 357.6 211.1 357.6 210.8 358.8 210.2
359.5 209.9 359 7 ls S 206.3 356.7 206.3 356.6 206.3 356.8 206.2
357.1 206.3 357.3 206.2 357.3 206.1 357.2 206.1 356.8 206.3 356.7
9 ls S 209.2 353.6 209.1 353.8 208.4 354 208.3 353.7 208.6 352.9
209 352.8 209.1 352.8 209.2 353.1 209.2 353.6 9 ls S 204.3 347.2
205.1 346.8 205.6 347.2 205.4 347.3 204.3 347.5 204.3 347.2 6 ls
S 225.2 337.7 225.3 337.9 225.1 338.4 224.8 338.5 224.5 338.4 224.3
338 224.3 337.6 224.3 336.6 224.3 336.1 224.4 335.5 224.7 336.2 224.9
336.9 224.9 337.1 224.9 337.2 225.1 337.3 225.2 337.7 16 ls S 214.2
345.2 213.3 345.2 212.8 345 212.3 344.9 212.1 344.5 212.3 344.2 212.8
344 213.5 343.9 214.3 344.5 214.5 344.8 214.7 345.1 214.2 345.2 12
ls S 226 337.4 225.9 337.6 225.9 337.5 226 337.4 4 ls S 222.5 361.8
222.4 361.8 221.7 361.9 221 361.9 220.4 361.9 218.9 361.5 218.1 362.2
217.6 361.7 217.5 360.7 217.4 359.6 217.6 358.7 218 357.7 218.2 357.4
218 357.1 217.5 357.1 217.3 357.5 216.7 357.8 216.2 358.2 216.2 359.1
215.4 359.3 215 360.1 213.9 360.3 213.8 359.6 213.9 359.2 214.3 358.4
213.9 358.5 213.4 358.3 213.5 357.8 213.9 357.1 214.4 356.6 214.9
356.1 215.8 356.1 216.1 355.9 216.1 355.5 215.5 355.4 215.2 354.6
214.7 354.4 213.4 354.8 213.1 355.5 211.9 355.2 210.3 354.6 210.2
353.1 209.7 352 210.6 351.4 210.5 350.5 210.2 350.4 210.1 349.6 210.7
348.8 211.6 348 212.4 347.6 212.5 347.7 211.8 347.3 210.7 346.6 209.3
346.4 207.8 346.3 207.5 346.5 206.2 346.9 205.5 346.9 205.2 346.7
205.5 346.6 205.8 346.5 206.3 346.2 206.9 346.1 207.5 346 208.2 345.8
208.9 345.3 210.2 345.6 211.2 345.4 212.3 345.8 213.5 345.6 213.8
345.8 214.6 346.1 214.5 346.8 215.8 347.2 217.2 347.5 218.1 347.4
218.6 347.3 218.3 346.8 217 346.9 216.3 346 215.9 345.9 215.7 345.8
215.7 345.5 216.2 345.4 216.7 345.3 218.3 345.3 218.9 346 220 345.6
219.9 345.2 220.5 344.4 221.1 343.8 221.7 343.1 222.3 342.5 222.9
341.8 223.3 340.9 223.7 340 224.1 339.1 224.5 338.8 224.6 339.7 224.6
339.9 100 ls 224.6 339.9 224.2 339.8 224.3 340.3 224 341.3 224.1
341.5 224 341.7 223.9 341.9 224.1 342.2 223.8 342.3 223.5 342.3 223.3
342.6 223.2 342.5 222.9 342.8 224 344.7 225 346.3 225.9 348 226.9
349.7 227.8 351.4 228.8 353.1 229.7 354.7 229.6 354.8 229.6 354.7
229.3 355.3 229 355.9 228.6 356.1 228.1 356.2 227.6 356.8 227.3 357.2
226.9 357.6 226.6 358.1 226.2 358.5 225.8 358.9 225.5 359.3 225.7
359.6 224.9 360.1 224.7 360.8 224.6 361.5 224.6 361.6 223.6 361.7
222.5 361.9 40 ll S 225.9 337.7 225.9 337.6 226 337.4 225.9 336.8
225.7 336.4 225.9 336.3 226 335.7 226.2 335.1 226.3 334.7 226 334.4
225.9 334.1 226.1 334 226.6 334.3 226.8 333.8 226.4 333.2 226.3 332.6
226.8 332.4 226.9 332.5 227 332.7 227.2 333 227.5 333.8 227.5 334.1
227.3 334.2 227.2 334.4 227.2 334.6 227 334.7 226.8 335.1 226.6 335.2
226.7 335.4 226.7 335.8 226.6 336.1 226.6 337.5 226.5 338 226.5 338.3
226.5 338.1 226.5 338.3 226.4 338.5 226.2 338.8 226.2 339.4 226.2
339.9 226 340.3 225.8 340.3 225.3 340.3 225.2 340.2 225.1 340.1 225.1
340 225 340 224.9 339.9 224.8 339.9 224.6 339.9 225 339.3 225.2 338.7
225.4 338.5 225.6 339.2 225.7 339.4 225.7 339.2 225.9 337.7 57 ls
S 225.3 335.5 225.1 335.2 225 334.3 224.9 334.1 225.3 333 225.4 332.8
225.5 333 225.7 333.4 225.6 334 225.5 334.2 225.7 334.4 225.6 334.9
225.6 335 225.3 335.5 14 ls S 209.9 359 210.4 358 210.8 357.6 211.1
357.6 210.8 358.8 210.2 359.5 209.9 359 7 ls S 206.3 356.7 206.3
356.6 206.3 356.8 206.2 357.1 206.3 357.3 206.2 357.3 206.1 357.2
206.1 356.8 206.3 356.7 9 ls S 209.2 353.6 209.1 353.8 208.4 354
208.3 353.7 208.6 352.9 209 352.8 209.1 352.8 209.2 353.1 209.2 353.6
9 ls S 204.3 347.2 205.1 346.8 205.6 347.2 205.4 347.3 204.3 347.5
204.3 347.2 6 ls S 225.2 337.7 225.3 337.9 225.1 338.4 224.8 338.5
224.5 338.4 224.3 338 224.3 337.6 224.3 336.6 224.3 336.1 224.4 335.5
224.7 336.2 224.9 336.9 224.9 337.1 224.9 337.2 225.1 337.3 225.2
337.7 16 ls S 214.2 345.2 213.3 345.2 212.8 345 212.3 344.9 212.1
344.5 212.3 344.2 212.8 344 213.5 343.9 214.3 344.5 214.5 344.8 214.7
345.1 214.2 345.2 12 ls S 226 337.4 225.9 337.6 225.9 337.5 226 337.4
4 ls S 222.5 361.8 222.4 361.8 221.7 361.9 221 361.9 220.4 361.9
218.9 361.5 218.1 362.2 217.6 361.7 217.5 360.7 217.4 359.6 217.6
358.7 218 357.7 218.2 357.4 218 357.1 217.5 357.1 217.3 357.5 216.7
357.8 216.2 358.2 216.2 359.1 215.4 359.3 215 360.1 213.9 360.3 213.8
359.6 213.9 359.2 214.3 358.4 213.9 358.5 213.4 358.3 213.5 357.8
213.9 357.1 214.4 356.6 214.9 356.1 215.8 356.1 216.1 355.9 216.1
355.5 215.5 355.4 215.2 354.6 214.7 354.4 213.4 354.8 213.1 355.5
211.9 355.2 210.3 354.6 210.2 353.1 209.7 352 210.6 351.4 210.5 350.5
210.2 350.4 210.1 349.6 210.7 348.8 211.6 348 212.4 347.6 212.5 347.7
211.8 347.3 210.7 346.6 209.3 346.4 207.8 346.3 207.5 346.5 206.2
346.9 205.5 346.9 205.2 346.7 205.5 346.6 205.8 346.5 206.3 346.2
206.9 346.1 207.5 346 208.2 345.8 208.9 345.3 210.2 345.6 211.2 345.4
212.3 345.8 213.5 345.6 213.8 345.8 214.6 346.1 214.5 346.8 215.8
347.2 217.2 347.5 218.1 347.4 218.6 347.3 218.3 346.8 217 346.9 216.3
346 215.9 345.9 215.7 345.8 215.7 345.5 216.2 345.4 216.7 345.3 218.3
345.3 218.9 346 220 345.6 219.9 345.2 220.5 344.4 221.1 343.8 221.7
343.1 222.3 342.5 222.9 341.8 223.3 340.9 223.7 340 224.1 339.1 224.5
338.8 224.6 339.7 224.6 339.9 100 ls 224.6 339.9 224.2 339.8 224.3
340.3 224 341.3 224.1 341.5 224 341.7 223.9 341.9 224.1 342.2 223.8
342.3 223.5 342.3 223.3 342.6 223.2 342.5 222.9 342.8 224 344.7 225
346.3 225.9 348 226.9 349.7 227.8 351.4 228.8 353.1 229.7 354.7 229.6
354.8 229.6 354.7 229.3 355.3 229 355.9 228.6 356.1 228.1 356.2 227.6
356.8 227.3 357.2 226.9 357.6 226.6 358.1 226.2 358.5 225.8 358.9
225.5 359.3 225.7 359.6 224.9 360.1 224.7 360.8 224.6 361.5 224.6
361.6 223.6 361.7 222.5 361.9 40 ll S 225.9 337.7 225.9 337.6 226
337.4 225.9 336.8 225.7 336.4 225.9 336.3 226 335.7 226.2 335.1 226.3
334.7 226 334.4 225.9 334.1 226.1 334 226.6 334.3 226.8 333.8 226.4
333.2 226.3 332.6 226.8 332.4 226.9 332.5 227 332.7 227.2 333 227.5
333.8 227.5 334.1 227.3 334.2 227.2 334.4 227.2 334.6 227 334.7 226.8
335.1 226.6 335.2 226.7 335.4 226.7 335.8 226.6 336.1 226.6 337.5
226.5 338 226.5 338.3 226.5 338.1 226.5 338.3 226.4 338.5 226.2 338.8
226.2 339.4 226.2 339.9 226 340.3 225.8 340.3 225.3 340.3 225.2 340.2
225.1 340.1 225.1 340 225 340 224.9 339.9 224.8 339.9 224.6 339.9
225 339.3 225.2 338.7 225.4 338.5 225.6 339.2 225.7 339.4 225.7 339.2
225.9 337.7 57 ls S 225.3 335.5 225.1 335.2 225 334.3 224.9 334.1
225.3 333 225.4 332.8 225.5 333 225.7 333.4 225.6 334 225.5 334.2
225.7 334.4 225.6 334.9 225.6 335 225.3 335.5 14 ls S 202.1 355.2
202.4 355.3 202.4 355.5 202.2 355.6 202.1 355.3 202.1 355.2 6 ls
S 202 353.7 202.1 353.6 202.4 353.5 202.5 353.6 202.6 353.8 202.5
353.9 202.1 353.8 202 353.7 8 ls S 202 352.9 202.3 352.5 202.5 352.3
202.7 352.1 203 352.3 203 352.5 202.7 352.5 202.8 352.4 202.4 352.5
202.3 352.7 202 352.9 11 ls S 202.3 349.4 202.9 349.2 203.5 349.1
203.7 349.2 203.6 349.4 203.4 349.5 202.8 349.5 202.3 349.4 8 ls
S 203.2 348.7 203.9 348.2 204.3 348.4 204.5 348.4 204.5 348.5 204.3
348.7 203.9 348.9 203.2 348.7 8 ls S 202.1 356.4 202.2 356.4 202.3
356.4 202.4 356.4 202.5 356.4 202.5 356.5 202.4 356.5 202.2 356.5
202 356.4 202.1 356.4 10 ls S 209.9 359 210.4 358 210.8 357.6 211.1
357.6 210.8 358.8 210.2 359.5 209.9 359 7 ls S 206.3 356.7 206.3
356.6 206.3 356.8 206.2 357.1 206.3 357.3 206.2 357.3 206.1 357.2
206.1 356.8 206.3 356.7 9 ls S 209.2 353.6 209.1 353.8 208.4 354
208.3 353.7 208.6 352.9 209 352.8 209.1 352.8 209.2 353.1 209.2 353.6
9 ls S 225.2 337.7 225.3 337.9 225.1 338.4 224.8 338.5 224.5 338.4
224.3 338 224.3 337.6 224.3 336.6 224.3 336.1 224.4 335.5 224.7 336.2
224.9 336.9 224.9 337.1 224.9 337.2 225.1 337.3 225.2 337.7 16 ls
S 214.2 345.2 213.3 345.2 212.8 345 212.3 344.9 212.1 344.5 212.3
344.2 212.8 344 213.5 343.9 214.3 344.5 214.5 344.8 214.7 345.1 214.2
345.2 12 ls S 227.6 356.8 227.3 357.2 226.9 357.6 226.6 358.1 226.2
358.5 225.8 358.9 225.5 359.3 225.7 359.6 224.9 360.1 224.7 360.8
224.6 361.5 224.6 361.6 223.6 361.7 222.5 361.9 222.5 361.8 222.4
361.8 221.7 361.9 221 361.9 220.4 361.9 218.9 361.5 218.1 362.2 217.6
361.7 217.5 360.7 217.4 359.6 217.6 358.7 218 357.7 218.2 357.4 218
357.1 217.5 357.1 217.3 357.5 216.7 357.8 216.2 358.2 216.2 359.1
215.4 359.3 215 360.1 213.9 360.3 213.8 359.6 213.9 359.2 214.3 358.4
213.9 358.5 213.4 358.3 213.5 357.8 213.9 357.1 214.4 356.6 214.9
356.1 215.8 356.1 216.1 355.9 216.1 355.5 215.5 355.4 215.2 354.6
214.7 354.4 213.4 354.8 213.1 355.5 211.9 355.2 210.3 354.6 210.2
353.1 209.7 352 210.6 351.4 210.5 350.5 210.2 350.4 210.1 349.6 210.7
348.8 211.6 348 212.4 347.6 212.5 347.7 211.8 347.3 210.7 346.6 209.3
346.4 207.8 346.3 207.5 346.5 206.2 346.9 205.5 346.9 205.2 346.7
205.5 346.6 205.8 346.5 206.3 346.2 206.9 346.1 207.5 346 208.2 345.8
208.9 345.3 210.2 345.6 211.2 345.4 212.3 345.8 213.5 345.6 213.8
345.8 214.6 346.1 214.5 346.8 215.8 347.2 217.2 347.5 218.1 347.4
218.6 347.3 218.3 346.8 217 346.9 216.3 346 215.9 345.9 215.7 345.8
215.7 345.5 216.2 345.4 216.7 345.3 218.3 345.3 100 ls 218.3 345.3
218.9 346 220 345.6 219.9 345.2 220.5 344.4 221.1 343.8 221.7 343.1
222.3 342.5 222.9 341.8 223.3 340.9 223.7 340 224.1 339.1 224.5 338.8
224.6 339.7 224.6 339.9 224.2 339.8 224.3 340.3 224 341.3 224.1 341.5
224 341.7 223.9 341.9 224.1 342.2 223.8 342.3 223.5 342.3 223.3 342.6
223.2 342.5 222.9 342.8 224 344.7 225 346.3 225.9 348 226.9 349.7
227.8 351.4 228.8 353.1 229.7 354.7 229.6 354.8 229.6 354.7 229.3
355.3 229 355.9 228.6 356.1 228.1 356.2 40 ll S 225.9 337.6 226 337.4
225.9 336.8 225.7 336.4 225.9 336.3 226 335.7 226.2 335.1 226.3 334.7
226 334.4 225.9 334.1 226.1 334 226.6 334.3 226.8 333.8 226.4 333.2
226.3 332.6 226.8 332.4 226.9 332.5 227 332.7 227.2 333 227.5 333.8
227.5 334.1 227.3 334.2 227.2 334.4 227.2 334.6 227 334.7 226.8 335.1
226.6 335.2 226.7 335.4 226.7 335.8 226.6 336.1 226.6 337.5 226.5
338 226.5 338.3 226.5 338.1 226.5 338.3 226.4 338.5 226.2 338.8 226.2
339.4 226.2 339.9 226 340.3 225.8 340.3 225.3 340.3 225.2 340.2 225.1
340.1 225.1 340 225 340 224.9 339.9 224.8 339.9 224.6 339.9 225 339.3
225.2 338.7 225.4 338.5 225.6 339.2 225.7 339.4 225.7 339.2 225.9
337.7 225.9 337.6 57 ls S 225.3 335.5 225.1 335.2 225 334.3 224.9
334.1 225.3 333 225.4 332.8 225.5 333 225.7 333.4 225.6 334 225.5
334.2 225.7 334.4 225.6 334.9 225.6 335 225.3 335.5 14 ls S 225.9
337.6 225.9 337.5 226 337.4 225.9 337.6 4 ls S 209.9 359 210.4 358
210.8 357.6 211.1 357.6 210.8 358.8 210.2 359.5 209.9 359 7 ls S
206.3 356.7 206.3 356.6 206.3 356.8 206.2 357.1 206.3 357.3 206.2
357.3 206.1 357.2 206.1 356.8 206.3 356.7 9 ls S 209.2 353.6 209.1
353.8 208.4 354 208.3 353.7 208.6 352.9 209 352.8 209.1 352.8 209.2
353.1 209.2 353.6 9 ls S 225.2 337.7 225.3 337.9 225.1 338.4 224.8
338.5 224.5 338.4 224.3 338 224.3 337.6 224.3 336.6 224.3 336.1 224.4
335.5 224.7 336.2 224.9 336.9 224.9 337.1 224.9 337.2 225.1 337.3
225.2 337.7 16 ls S 214.2 345.2 213.3 345.2 212.8 345 212.3 344.9
212.1 344.5 212.3 344.2 212.8 344 213.5 343.9 214.3 344.5 214.5 344.8
214.7 345.1 214.2 345.2 12 ls S 226 337.4 225.9 337.6 225.9 337.5
226 337.4 4 ls S 222.5 361.8 222.4 361.8 221.7 361.9 221 361.9 220.4
361.9 218.9 361.5 218.1 362.2 217.6 361.7 217.5 360.7 217.4 359.6
217.6 358.7 218 357.7 218.2 357.4 218 357.1 217.5 357.1 217.3 357.5
216.7 357.8 216.2 358.2 216.2 359.1 215.4 359.3 215 360.1 213.9 360.3
213.8 359.6 213.9 359.2 214.3 358.4 213.9 358.5 213.4 358.3 213.5
357.8 213.9 357.1 214.4 356.6 214.9 356.1 215.8 356.1 216.1 355.9
216.1 355.5 215.5 355.4 215.2 354.6 214.7 354.4 213.4 354.8 213.1
355.5 211.9 355.2 210.3 354.6 210.2 353.1 209.7 352 210.6 351.4 210.5
350.5 210.2 350.4 210.1 349.6 210.7 348.8 211.6 348 212.4 347.6 212.5
347.7 211.8 347.3 210.7 346.6 209.3 346.4 207.8 346.3 207.5 346.5
206.2 346.9 205.5 346.9 205.2 346.7 205.5 346.6 205.8 346.5 206.3
346.2 206.9 346.1 207.5 346 208.2 345.8 208.9 345.3 210.2 345.6 211.2
345.4 212.3 345.8 213.5 345.6 213.8 345.8 214.6 346.1 214.5 346.8
215.8 347.2 217.2 347.5 218.1 347.4 218.6 347.3 218.3 346.8 217 346.9
216.3 346 215.9 345.9 215.7 345.8 215.7 345.5 216.2 345.4 216.7 345.3
218.3 345.3 218.9 346 220 345.6 219.9 345.2 220.5 344.4 221.1 343.8
221.7 343.1 222.3 342.5 222.9 341.8 223.3 340.9 223.7 340 224.1 339.1
224.5 338.8 224.6 339.7 224.6 339.9 100 ls 224.6 339.9 224.2 339.8
224.3 340.3 224 341.3 224.1 341.5 224 341.7 223.9 341.9 224.1 342.2
223.8 342.3 223.5 342.3 223.3 342.6 223.2 342.5 222.9 342.8 224 344.7
225 346.3 225.9 348 226.9 349.7 227.8 351.4 228.8 353.1 229.7 354.7
229.6 354.8 229.6 354.7 229.3 355.3 229 355.9 228.6 356.1 228.1 356.2
227.6 356.8 227.3 357.2 226.9 357.6 226.6 358.1 226.2 358.5 225.8
358.9 225.5 359.3 225.7 359.6 224.9 360.1 224.7 360.8 224.6 361.5
224.6 361.6 223.6 361.7 222.5 361.9 40 ll S 225.9 337.7 225.9 337.6
226 337.4 225.9 336.8 225.7 336.4 225.9 336.3 226 335.7 226.2 335.1
226.3 334.7 226 334.4 225.9 334.1 226.1 334 226.6 334.3 226.8 333.8
226.4 333.2 226.3 332.6 226.8 332.4 226.9 332.5 227 332.7 227.2 333
227.5 333.8 227.5 334.1 227.3 334.2 227.2 334.4 227.2 334.6 227 334.7
226.8 335.1 226.6 335.2 226.7 335.4 226.7 335.8 226.6 336.1 226.6
337.5 226.5 338 226.5 338.3 226.5 338.1 226.5 338.3 226.4 338.5 226.2
338.8 226.2 339.4 226.2 339.9 226 340.3 225.8 340.3 225.3 340.3 225.2
340.2 225.1 340.1 225.1 340 225 340 224.9 339.9 224.8 339.9 224.6
339.9 225 339.3 225.2 338.7 225.4 338.5 225.6 339.2 225.7 339.4 225.7
339.2 225.9 337.7 57 ls S 225.3 335.5 225.1 335.2 225 334.3 224.9
334.1 225.3 333 225.4 332.8 225.5 333 225.7 333.4 225.6 334 225.5
334.2 225.7 334.4 225.6 334.9 225.6 335 225.3 335.5 14 ls S 209.9
359 210.4 358 210.8 357.6 211.1 357.6 210.8 358.8 210.2 359.5 209.9
359 7 ls S 206.3 356.7 206.3 356.6 206.3 356.8 206.2 357.1 206.3
357.3 206.2 357.3 206.1 357.2 206.1 356.8 206.3 356.7 9 ls S 209.2
353.6 209.1 353.8 208.4 354 208.3 353.7 208.6 352.9 209 352.8 209.1
352.8 209.2 353.1 209.2 353.6 9 ls S 225.2 337.7 225.3 337.9 225.1
338.4 224.8 338.5 224.5 338.4 224.3 338 224.3 337.6 224.3 336.6 224.3
336.1 224.4 335.5 224.7 336.2 224.9 336.9 224.9 337.1 224.9 337.2
225.1 337.3 225.2 337.7 16 ls S 214.2 345.2 213.3 345.2 212.8 345
212.3 344.9 212.1 344.5 212.3 344.2 212.8 344 213.5 343.9 214.3 344.5
214.5 344.8 214.7 345.1 214.2 345.2 12 ls S 226 337.4 225.9 337.6
225.9 337.5 226 337.4 4 ls S 222.5 361.8 222.4 361.8 221.7 361.9
221 361.9 220.4 361.9 218.9 361.5 218.1 362.2 217.6 361.7 217.5 360.7
217.4 359.6 217.6 358.7 218 357.7 218.2 357.4 218 357.1 217.5 357.1
217.3 357.5 216.7 357.8 216.2 358.2 216.2 359.1 215.4 359.3 215 360.1
213.9 360.3 213.8 359.6 213.9 359.2 214.3 358.4 213.9 358.5 213.4
358.3 213.5 357.8 213.9 357.1 214.4 356.6 214.9 356.1 215.8 356.1
216.1 355.9 216.1 355.5 215.5 355.4 215.2 354.6 214.7 354.4 213.4
354.8 213.1 355.5 211.9 355.2 210.3 354.6 210.2 353.1 209.7 352 210.6
351.4 210.5 350.5 210.2 350.4 210.1 349.6 210.7 348.8 211.6 348 212.4
347.6 212.5 347.7 211.8 347.3 210.7 346.6 209.3 346.4 207.8 346.3
207.5 346.5 206.2 346.9 205.5 346.9 205.2 346.7 205.5 346.6 205.8
346.5 206.3 346.2 206.9 346.1 207.5 346 208.2 345.8 208.9 345.3 210.2
345.6 211.2 345.4 212.3 345.8 213.5 345.6 213.8 345.8 214.6 346.1
214.5 346.8 215.8 347.2 217.2 347.5 218.1 347.4 218.6 347.3 218.3
346.8 217 346.9 216.3 346 215.9 345.9 215.7 345.8 215.7 345.5 216.2
345.4 216.7 345.3 218.3 345.3 218.9 346 220 345.6 219.9 345.2 220.5
344.4 221.1 343.8 221.7 343.1 222.3 342.5 222.9 341.8 223.3 340.9
223.7 340 224.1 339.1 224.5 338.8 224.6 339.7 224.6 339.9 100 ls
224.6 339.9 224.2 339.8 224.3 340.3 224 341.3 224.1 341.5 224 341.7
223.9 341.9 224.1 342.2 223.8 342.3 223.5 342.3 223.3 342.6 223.2
342.5 222.9 342.8 224 344.7 225 346.3 225.9 348 226.9 349.7 227.8
351.4 228.8 353.1 229.7 354.7 229.6 354.8 229.6 354.7 229.3 355.3
229 355.9 228.6 356.1 228.1 356.2 227.6 356.8 227.3 357.2 226.9 357.6
226.6 358.1 226.2 358.5 225.8 358.9 225.5 359.3 225.7 359.6 224.9
360.1 224.7 360.8 224.6 361.5 224.6 361.6 223.6 361.7 222.5 361.9
40 ll S 225.9 337.7 225.9 337.6 226 337.4 225.9 336.8 225.7 336.4
225.9 336.3 226 335.7 226.2 335.1 226.3 334.7 226 334.4 225.9 334.1
226.1 334 226.6 334.3 226.8 333.8 226.4 333.2 226.3 332.6 226.8 332.4
226.9 332.5 227 332.7 227.2 333 227.5 333.8 227.5 334.1 227.3 334.2
227.2 334.4 227.2 334.6 227 334.7 226.8 335.1 226.6 335.2 226.7 335.4
226.7 335.8 226.6 336.1 226.6 337.5 226.5 338 226.5 338.3 226.5 338.1
226.5 338.3 226.4 338.5 226.2 338.8 226.2 339.4 226.2 339.9 226 340.3
225.8 340.3 225.3 340.3 225.2 340.2 225.1 340.1 225.1 340 225 340
224.9 339.9 224.8 339.9 224.6 339.9 225 339.3 225.2 338.7 225.4 338.5
225.6 339.2 225.7 339.4 225.7 339.2 225.9 337.7 57 ls S 225.3 335.5
225.1 335.2 225 334.3 224.9 334.1 225.3 333 225.4 332.8 225.5 333
225.7 333.4 225.6 334 225.5 334.2 225.7 334.4 225.6 334.9 225.6 335
225.3 335.5 14 ls S 229.6 321.6 229.3 322 229 322.1 228.5 322.3 228
322.8 227.9 322.1 227.9 320.8 227.7 319.9 227.8 319.9 228 319.9 228.2
319.8 228.3 319.6 228.4 319.6 228.5 319.6 228.5 319.5 228.6 319.4
228.7 319.2 228.6 319.1 228.6 319 228.6 318.8 228.7 318.7 228.8 318.6
228.9 318.5 229 318.5 229.2 318.5 229.3 318.6 229.5 318.6 229.7 318.5
229.9 318.5 230 318.4 230.1 318.3 230.6 318.2 230.9 318.2 231.1 318.3
232 318.3 232.9 318 233.4 317.9 233.9 317.8 233.9 317.9 233.9 318.2
233.9 318.4 233.9 318.5 234.2 319.4 234.4 320.4 234.7 321.5 234.7
321.7 234.4 321.7 233.7 321.9 233.2 322.1 232.4 322.3 231.5 322.5
229.9 323 229.9 322.9 229.9 322.8 230 322.6 230 322.5 230 322.4 230
322.2 230 322 229.9 321.9 229.9 321.8 229.9 321.9 229.9 321.8 229.9
321.6 229.7 321.3 229.7 321.2 229.7 321.1 229.6 321.3 229.6 321.4
229.6 321.6 70 ls S 238.8 314.7 238.9 315.4 239.5 315.3 240.1 315.2
241.2 315 241.9 314.9 243.4 314.7 243.6 314.7 244.5 314.6 245.4 314.5
245.5 314.8 245.5 315.7 245.5 315.8 245.6 316.2 245.7 317.6 245.8
318.5 245.9 319.3 245.9 319.8 245 319.9 244.1 320 243.2 320.1 242.3
320.2 241.2 320.4 240.8 320.4 240.1 320.5 239.6 320.6 238.9 320.8
237.3 321.1 236.7 321.2 235.6 321.5 235.4 320.8 235.3 320.4 235.3
320.1 235.4 319.4 235.7 319.1 235.9 318.5 236.2 318.1 236.3 317.9
236.3 317.8 236.2 317.6 236.1 317.5 235.9 317 235.9 316.8 235.9 316.7
236 316.6 236.1 316.6 236.3 316.6 236.3 316.7 236.5 316.4 236.7 316
236.7 315.7 236.7 315.6 237.2 314.9 238.1 314.9 238.4 314.9 238.5
315 238.5 315.1 238.6 315.1 238.6 315 238.7 315 238.7 314.9 238.8
314.7 62 ls S 278 317.3 279.6 318.4 279.3 318.7 279.3 318.8 279.2
318.8 279.2 318.7 279.1 318.7 279 318.8 279 319 279 319.1 278.9 319.2
278.6 319.2 278.5 319.2 278.5 319.4 278.5 319.5 278.4 319.6 278 321
277.5 321.2 277.4 321.2 277.3 321.1 277 320.8 276.8 320.9 276.7 321.1
276.6 321.1 276.2 319.9 276.2 319.2 276.2 319 276.2 318.9 276.3 318.9
276.3 318.8 276.2 318.6 276 318.2 276 318 275.8 317.9 276.1 317.1
276.2 316.6 276.4 316 276.5 315.7 276.8 315.2 277 315.2 277.2 315.9
277.5 316.3 278 317.3 43 ls S 250.4 315.4 251.1 315.4 251.8 315.4
252.4 315.4 252.4 315.6 252.4 315.9 252.4 316 252.3 316 252.3 316.1
252.2 316.3 252.2 316.4 252.2 317.3 252.1 317.9 252 318.1 251.9 318.3
251.9 318.4 251.9 318.5 251.9 318.9 251.9 319.5 251.2 319.5 250.3
319.5 249.8 319.5 249.3 319.5 248.2 319.6 248.1 319.6 247.7 319.6
246.9 319.7 245.9 319.8 245.9 319.3 245.8 318.5 245.7 317.6 245.6
316.2 245.5 315.8 246.5 315.7 247.4 315.6 248.8 315.5 250.2 315.5
250.4 315.4 38 ls S 246.4 311.8 247.1 311.7 247.9 311.7 248.9 311.6
249.5 311.6 249.8 311.6 250.5 311.6 250.6 311.5 251 311.3 251.1 311.3
251.3 311.3 251.6 311.4 251.7 311.4 252.1 311.2 252.2 311.1 252.3
311.1 252.2 311 252.3 311 252.4 310.9 252.5 310.9 252.3 311.2 252.4
311.3 252.5 311.6 252.5 311.7 252.5 311.8 252.4 311.8 252.4 311.9
252.4 312.2 252.5 312.2 252.5 312.7 252.5 313.6 252.5 314.5 252.5
314.6 252.4 314.7 252.3 314.7 252.2 314.8 252.2 314.9 252.1 315 252.2
315 252.3 315.1 252.4 315.2 252.4 315.4 251.8 315.4 251.1 315.4 250.4
315.4 250.2 315.5 248.8 315.5 247.4 315.6 246.5 315.7 245.5 315.8
245.5 315.7 245.5 314.8 245.4 314.5 245.4 314 245.3 313.4 245.2 312.5
245.2 311.9 245.7 311.8 246.2 311.8 246.4 311.8 60 ls S 240 309.9
241.1 309.7 241.7 309.6 242.2 309.6 242.8 309.5 243.7 309.4 244.1
309.4 244.9 309.3 245 309.8 245 310.2 245.1 310.6 245.1 311.4 245.2
311.9 245.2 312.5 245.3 313.4 245.4 314 245.4 314.5 244.5 314.6 243.6
314.7 243.4 314.7 241.9 314.9 241.2 315 240.1 315.2 239.5 315.3 238.9
315.4 238.8 314.7 238.7 314.1 238.6 313.2 238.4 312.1 238.3 311.5
238.2 310.9 238.1 310.5 238 310.2 239.1 310 240 309.9 35 ls S 257.5
312.3 257.5 312.2 257.6 311.6 257.7 311.4 257.7 311.3 257.8 311.3
257.9 311.3 258 311.2 258.1 311.2 258.1 311.1 258.2 311.1 258.1 311.1
259.3 311.1 259.8 311.1 260 311.2 260.5 311.2 260.9 311.2 260.8 311.7
260.7 312.2 260.7 312.4 260.8 313.1 260.9 313.9 261.1 314.3 261.2
314.4 261.3 314.8 261.3 314.9 261.3 315 261.2 315 261 314.6 261 314.4
260.9 314.4 260.8 314.3 260.7 314.1 260.5 313.9 260.4 313.9 260.4
314.1 260.6 314.4 260.6 314.5 260.7 314.6 260.7 314.7 260.6 314.8
260.5 315.2 260.5 315.3 260.5 315.4 260.5 315.5 260.2 315.7 260.1
315.7 259.3 315.9 258.5 316.1 258.3 316.1 258.3 316.2 258.2 316.3
258 316.4 257.5 316.4 257.7 316.8 257.6 316.9 257 316.6 256.6 316.5
256.4 316.4 256.3 316.4 256.3 315.8 256.3 315.7 256.3 315.6 256.2
315.5 256.1 315.5 256 315.4 255.8 315.2 255.8 315.1 255.8 315 255.9
315 256 314.6 255.9 314.3 255.9 313.9 256.1 313.7 256.4 313.6 256.6
313.5 256.7 313.4 257.3 312.9 257.4 312.8 257.5 312.7 257.5 312.6
257.5 312.4 257.5 312.3 83 ls S 235.4 312 236.4 311.8 237.2 311.7
237.3 311.7 237.8 311.6 238.3 311.5 238.4 312.1 238.6 313.2 238.7
314.1 238.8 314.7 238.7 314.9 238.7 315 238.6 315 238.6 315.1 238.5
315.1 238.5 315 238.4 314.9 238.1 314.9 237.2 314.9 236.7 315.6 236.7
315.7 236.7 316 236.5 316.4 236.3 316.7 236.3 316.6 236.1 316.6 236
316.6 235.9 316.7 235.9 316.8 235.9 317 236.1 317.5 236.2 317.6 236.3
317.8 236.3 317.9 236.2 318.1 235.9 318.5 235.7 319.1 235.4 319.4
235.3 320.1 235.3 320.4 235.4 320.8 235.6 321.5 234.7 321.7 234.7
321.5 234.4 320.4 234.2 319.4 233.9 318.5 233.9 318.4 233.9 318.2
233.9 317.9 233.9 317.8 233.9 317.6 234 317.5 234.1 317.4 234.1 317.3
234.2 317.2 234.1 317.1 234 317 233.9 316.8 233.7 316.6 233.6 316.4
233.6 316.3 233.5 316.2 233.4 316.2 233.1 315.9 233.1 315.8 233.1
315.7 233.1 315.6 233.2 315.6 233.3 315.6 233.3 315.4 233.3 315.2
233.1 314.8 232.5 312.7 232.6 312.7 233.6 312.4 234.4 312.2 235.2
312.1 235.4 312 79 ls S 275.5 314.2 275.4 314.3 275.3 314.4 275.3
315.6 275.3 316.3 275.3 316.4 275.4 316.4 275.5 316.4 275.5 316.5
275.6 316.6 275.6 316.7 275.6 316.8 275.6 316.9 275.5 317.4 275.2
317.3 274.6 317.1 274 317 273.9 316.9 273.9 316.7 274 316.4 274.1
315.8 274.1 315.7 274.2 315.5 274.4 315.2 274.4 315.1 274.5 315 274.5
314.8 274.6 314.3 274.7 314.1 275 314.1 275.5 314.2 31 ls S 257.5
312.3 257.5 312.4 257.5 312.6 257.5 312.7 257.4 312.8 257.3 312.9
256.7 313.4 256.6 313.5 256.4 313.6 256.1 313.7 255.9 313.9 255.9
314.3 256 314.6 255.9 315 255.8 315 255.8 315.1 255.8 315.2 256 315.4
256.1 315.5 256.2 315.5 256.3 315.6 256.3 315.7 256.3 315.8 256.3
316.4 256.4 316.4 257 317.1 257.4 317.5 257.8 317.9 258.3 318.1 258.6
318.3 258.7 318.3 258.5 318.4 258.2 318.4 257.8 318.4 257.6 318.4
257.5 318.6 257.3 318.5 257.2 318.4 256.9 318.3 256.5 318.5 255.6
319 255.3 319 255.2 318.9 254.5 319 254.2 319.1 254.1 319.2 254.1
319.3 253.9 319.9 253.7 320 253.7 319.5 253.6 319.5 252.6 319.5 251.9
319.5 251.9 318.9 251.9 318.5 251.9 318.4 251.9 318.3 252 318.1 252.1
317.9 252.2 317.3 252.2 316.4 252.2 316.3 252.3 316.1 252.3 316 252.4
316 252.4 315.9 252.4 315.6 252.4 315.4 252.4 315.2 252.3 315.1 252.2
315 252.1 315 252.2 314.9 252.2 314.8 252.3 314.7 252.4 314.7 252.5
314.6 252.5 314.5 252.5 313.6 252.5 312.7 252.5 312.2 252.9 312.2
253.1 312.2 253.4 312.2 254 312.2 254.4 312.2 254.6 312.2 255.3 312.2
256.3 312.3 256.7 312.3 257 312.3 257.1 312.3 257.5 312.3 93 ls S
229.7 313.4 230.3 313.3 230.4 313.2 231.4 313 232.5 312.7 233.1 314.8
233.3 315.2 233.3 315.4 233.3 315.6 233.2 315.6 233.1 315.6 233.1
315.7 233.1 315.8 233.1 315.9 233.4 316.2 233.5 316.2 233.6 316.3
233.6 316.4 233.7 316.6 233.9 316.8 234 317 234.1 317.1 234.2 317.2
234.1 317.3 234.1 317.4 234 317.5 233.9 317.6 233.9 317.8 233.4 317.9
232.9 318 232 318.3 231.1 318.3 230.9 318.2 230.6 318.2 230.1 318.3
230 318.4 229.9 318.5 229.7 318.5 229.5 318.6 229.3 318.6 229.2 318.5
229 318.5 228.9 318.5 228.8 318.6 228.7 318.7 228.6 318.8 228.6 319
228.6 319.1 228.7 319.2 228.6 319.4 228.5 319.5 228.5 319.6 228.4
319.6 228.3 319.6 228.2 319.7 227.7 319.8 227.6 319.5 227.4 318.7
227 317.9 226.3 316.5 225.8 315.8 225.7 315 225.8 314.7 226.1 314.5
226.4 314.4 227.6 314.1 228.4 313.8 228.9 313.7 229.7 313.4 69 ls
S 276.9 314.9 276.9 315.1 276.8 315.2 276.5 315.7 276.4 316 276.2
316.6 276.1 317.1 275.8 317.9 275.6 317.8 275.5 317.7 275.5 317.4
275.6 316.9 275.6 316.8 275.6 316.7 275.6 316.6 275.5 316.5 275.5
316.4 275.4 316.4 275.3 316.4 275.3 316.3 275.3 315.6 275.3 314.4
275.4 314.3 275.5 314.2 275.6 314.3 276 314.4 276.6 314.5 276.6 314.6
276.6 314.7 276.8 314.8 276.9 314.9 31 ls S 253.2 308.4 253.7 308.4
254 308.4 254.7 308.4 255.6 308.4 255.8 308.4 256.2 308.4 256.3 308.4
256.6 308.5 257 308.5 257.2 308.5 257.2 308.4 257.4 308.2 257.5 308.2
257.6 308.2 257.6 308.3 257.8 308.6 257.8 308.7 257.9 309 257.9 309.1
257.9 309.2 257.9 309.3 257.8 309.3 257.8 309.4 257.8 309.6 257.9
309.6 258.1 309.7 258.2 309.7 258.4 309.8 258.5 309.9 258.6 310.2
258.7 310.3 258.7 310.4 258.7 310.5 258.6 310.6 258.3 310.9 258.1
311.1 258.2 311.1 258.1 311.1 258.1 311.2 258 311.2 257.9 311.3 257.8
311.3 257.7 311.3 257.7 311.4 257.6 311.6 257.5 312.2 257.5 312.3
257.1 312.3 257 312.3 256.7 312.3 256.3 312.3 255.3 312.2 254.6 312.2
254.4 312.2 254 312.2 253.4 312.2 253.1 312.2 252.9 312.2 252.5 312.2
252.4 312.2 252.4 311.9 252.4 311.8 252.5 311.8 252.5 311.7 252.5
311.6 252.4 311.3 252.3 311.2 252.5 310.9 252.5 310.8 252.9 310 252.8
309.9 252.8 309.8 252.8 309.7 252.8 309.6 253 309.4 253 309.3 253.1
309.1 253.2 308.4 79 ls S 277.6 313.3 278.2 313.6 278.2 313.7 278.1
313.9 278 314 277.9 314 277.8 314 277.9 314 278.1 313.8 278.1 313.7
277.9 313.6 277.8 313.5 277.6 313.6 277.5 313.8 277.3 314 277.2 314.1
277.1 314.1 277.1 314.6 276.9 314.9 276.8 314.8 276.6 314.7 276.6
314.6 276.6 314.5 276 314.4 275.6 314.3 275.5 314.2 275 314.1 274.7
314.1 274.7 313.7 274.7 313.2 274.7 313.1 275.2 313.2 275.4 313.3
275.6 313.3 275.7 313.3 276 313.4 276.3 313.5 276.7 313.6 276.8 313.5
276.8 313.3 276.9 313.3 277 313.3 277.1 313.2 277.2 313 277.6 313.3
45 ls S 246.8 307.8 247.5 307.8 248.2 307.7 248.7 307.7 249.8 307.7
250.4 307.6 251 307.6 251.6 307.6 252.1 307.6 252.5 307.6 253.2 307.6
253.6 307.6 253.5 307.7 253.3 308.1 253.2 308.3 253.2 308.4 253.1
309.1 253 309.3 253 309.4 252.8 309.6 252.8 309.7 252.8 309.8 252.8
309.9 252.9 310 252.5 310.8 252.5 310.9 252.4 310.9 252.3 311 252.2
311 252.3 311.1 252.2 311.1 252.1 311.2 251.7 311.4 251.6 311.4 251.3
311.3 251.1 311.3 251 311.3 250.6 311.5 250.5 311.6 249.8 311.6 249.5
311.6 248.9 311.6 247.9 311.7 247.1 311.7 246.4 311.8 246.2 311.8
245.7 311.8 245.2 311.9 245.1 311.4 245.1 310.6 245 310.2 245 309.8
244.9 309.3 245.4 309.2 246.3 309.2 246.4 309.2 246.9 309.1 246.9
308.7 246.9 308.3 246.8 307.8 60 ls S 274.7 313.1 274.7 313.2 274.7
313.7 274.7 314.1 274.6 314.3 274.5 314.8 274.5 315 274.4 315.1 274.4
315.2 274.2 315.5 274.1 315.7 274.1 315.8 274 316.4 273.9 316.7 273.9
316.9 273.3 316.7 272.6 316.6 272.4 316.5 272.1 316.2 271.8 315.7
271.8 315.6 271.4 315.1 271.5 315 271.6 314.9 271.7 314.5 271.7 314.4
271.3 314 271.1 313.9 270.5 313.7 270.3 313.8 270.1 313.8 269.6 313.7
269.1 313.5 269.1 313.2 269.3 313.2 269.4 312.9 269.2 312.6 269 312.3
268.7 312 268.7 311.7 268.9 311.7 269.6 311.9 270.2 312 270.7 312.1
271.8 312.3 272.9 312.6 273 312.6 273.2 312.5 273.3 312.4 273.3 312.3
273.4 312.2 273.8 311.9 274.2 311.8 274.3 311.8 274.7 311.7 274.7
311.6 274.7 311.5 274.7 311.4 274.7 311.3 274.9 311.7 274.8 311.9
274.9 312.1 274.7 313.1 63 ls 275.3 311.4 276.1 311.8 276.6 312.2
276.6 312.3 276.5 312.3 276.2 312.1 275.5 311.9 274.8 311.3 274.8
311.2 275 311.2 275.3 311.4 11 ls S 273.2 309.6 273.3 309.7 273.4
309.8 273.5 309.8 273.6 309.8 273.8 310.1 274 310.2 274.1 310.3 273.7
310.7 273.6 310.8 273.5 310.9 273.5 311 273.6 311.4 273.7 311.8 273.7
311.9 273.8 311.9 273.4 312.2 273.3 312.3 273.3 312.4 273.2 312.5
273 312.6 272.9 312.6 271.8 312.3 270.7 312.1 270.2 312 269.6 311.9
268.9 311.7 268.7 311.7 268.7 312 268 311.5 268.1 310.9 268.3 310.1
268.3 309.8 268.4 309.6 268.4 309.2 268.5 308.6 268.6 308.6 269.1
308.7 269.6 308.8 269.7 308.8 270.1 308.9 270.7 309 271 309.1 271.6
309.2 272.5 309.4 272.8 309.5 272.9 309.5 273.2 309.6 48 ls S 276.5
312.6 276.5 312.7 276.5 312.8 276.5 313 276.4 313.1 276.3 313.5 276
313.4 275.7 313.3 275.6 313.3 275.4 313.3 275.2 313.2 274.7 313.1
274.9 312.1 274.8 311.9 274.9 311.7 276.1 312.5 276.5 312.6 17 ls
S 277.2 313 277.1 313.2 277 313.3 277.1 313 277.2 313 5 ls 276.9
312.9 276.8 313.2 276.8 313.3 277 313.3 276.9 313.3 276.8 313.3 276.8
313.5 276.7 313.6 276.3 313.5 276.4 313.1 276.5 313 276.5 312.8 276.5
312.7 276.5 312.6 276.7 312.7 276.9 312.8 276.9 312.9 17 ls S 273.5
309.7 273.5 309.5 273.5 309.4 274.4 308.8 274.8 310 274.8 310.8 274.5
310.9 274.5 311 274.6 311.3 274.7 311.3 274.7 311.4 274.7 311.5 274.7
311.6 274.7 311.7 274.3 311.8 274.2 311.8 273.8 311.9 273.7 311.9
273.7 311.8 273.6 311.4 273.5 311 273.5 310.9 273.6 310.8 273.7 310.7
274.1 310.3 274 310.2 273.8 310.1 273.6 309.8 273.5 309.7 29 ls S
264.4 307.2 264.3 307.4 264.3 307.8 264.2 308.2 264.2 308.3 264.2
308.7 264.2 308.8 264.1 309.5 264 310 264 310.2 264 310.3 263.9 310.5
263.9 310.6 263.4 310.6 263.1 310.5 262.5 310.5 262.2 310.4 261.9
310.4 261.8 310.3 261.6 310.2 261.4 310.2 261.3 310.2 261.3 310.3
261.4 309 261.5 307.2 261.6 306.7 261.6 306.4 261.7 306.4 261.5 306
261.4 305.9 261.3 305.8 261.2 305.7 261.1 305.2 261.2 305.1 261.3
305.1 261.6 305.3 262.2 305.3 262.5 305.3 262.8 305.5 262.9 305.7
262.9 305.8 263 305.6 263.1 305.6 263.3 305.6 263.4 305.6 263.8 306.3
263.8 306.4 263.8 306.5 263.8 306.6 263.9 306.6 264.1 306.7 264.4
306.8 264.4 306.9 264.3 307 264.3 307.1 264.3 307.2 264.4 307.2 57
ls S 235.4 312 235.2 312.1 234.4 312.2 233.6 312.4 232.6 312.7 232.5
312.7 231.4 313 230.4 313.2 230.3 313.3 229.7 313.4 229.4 312.4 228.9
310.6 228.8 310.2 228.7 309.6 229 309.2 229.3 308.7 229.8 307.8 230.3
307.1 230.8 306.3 231.8 304.8 232 304.4 232.9 303.2 233 303.3 233
303.4 233 303.6 233 304.1 233 304.5 233.1 304.6 233.2 304.6 233.3
304.6 233.5 304.6 233.5 304.5 233.6 304.4 233.7 304.4 233.8 304.6
234 305.4 234 305.6 234.2 306.4 234.3 307.1 234.5 307.6 234.5 307.8
234.7 308.9 234.9 309.6 235.1 310.8 235.4 312 45 ls S 240 309.9 239.1
310 238 310.2 238.1 310.5 238.2 310.9 238.3 311.5 237.8 311.6 237.3
311.7 237.2 311.7 236.4 311.8 235.4 312 235.1 310.8 234.9 309.6 234.7
308.9 234.5 307.8 234.5 307.6 234.3 307.1 234.2 306.4 234 305.6 235.2
305.4 235.9 305.2 236.8 305.1 237.5 305 237.8 304.9 238.2 304.8 239.2
304.7 239.3 305.5 239.5 306.6 239.7 308.1 239.8 308.9 239.9 309.4
240 309.9 32 ls S 226.7 303.3 226.7 303.2 226.9 303.2 226.8 303.4
226.6 303.4 226.7 303.3 6 ls 227 303.4 227 303.3 227 303.2 227.2
303.2 227.3 303.2 227.4 303.2 227.3 303.3 227.2 303.2 227 303.4 9
ls 228.2 302.2 228.3 302 228.4 301.9 228.4 302 228.4 302.1 228.2
302.2 6 ls 228.2 301.3 228.1 301.6 228 301.7 228.1 301.5 228.1 301.3
228.2 301.3 6 ls 232.7 301.5 232.7 301.6 232.7 301.8 232.9 302 233
302 233.1 302 233.2 302.1 233.2 302.2 233.2 302.3 233 302.6 232.8
303 232.8 303.1 232.9 303.2 232 304.4 231.8 304.8 230.8 306.3 230.3
307.1 229.8 307.8 229.3 308.7 229 309.2 228.7 309.6 228.8 310.2 228.9
310.6 229.4 312.4 229.7 313.4 228.9 313.7 228.4 313.8 227.6 314.1
226.4 314.4 226.1 314.5 225.8 314.7 225.6 313.8 225.4 313.4 225 312.8
224.9 312.5 225.2 311.8 225.2 311.5 225 310.7 225.2 310.1 225.4 309.3
225.6 309.1 226 309.3 226.1 309.3 226.1 309.1 226 309.1 225.7 308.9
225.6 308.5 225.6 308.1 225.7 307.8 225.8 307.7 226 307.6 226.1 307.4
226 307.2 225.8 307.2 225.8 306.8 226.1 305.8 226.6 305 226.4 304.2
226.5 304 227.4 303.7 228 303.1 228.8 302.4 229.2 301.9 229.4 301.4
229.4 300.8 229.4 300.6 230.6 300.5 232.1 300.3 232.3 300.2 232.3
300.3 232.4 300.3 232.5 300.4 232.5 300.5 232.4 300.6 232.3 300.6
232.3 300.7 232.2 300.7 232.3 301 232.3 301.1 232.5 301.2 232.6 301.3
232.7 301.5 82 ls S 266 306.7 266 306.8 266.2 306.9 266.3 307 266.4
307 266.7 306.7 266.7 306.6 266.8 306.6 267 306.7 267.1 306.9 267.1
307 267 307.1 267.1 307.3 267.1 307.4 267.2 307.4 267.7 308.1 267.8
308 267.9 308.1 268 308.2 268.2 308.4 268.3 309.1 268.2 309.7 268.3
309.8 268.3 310.1 268.1 310.9 268 311.5 267.6 311.3 267.3 311.1 267.2
310.9 267 310.7 266.7 310.7 266.4 310.5 266.2 310.4 265.8 310.4 265.7
310.5 265.9 310.6 265.5 310.7 265.2 310.7 264.9 310.7 264.3 310.6
263.9 310.5 264 310.3 264 310.2 264 310 264.1 309.5 264.2 308.8 264.2
308.7 264.2 308.3 264.2 308.2 264.3 307.8 264.3 307.4 264.4 307.2
264.7 307.2 264.9 307.1 265 306.9 265.3 306.8 265.7 306.8 265.8 306.8
265.9 306.8 266 306.7 60 ls S 261.2 305.1 261.1 305.2 261.2 305.7
261.3 305.8 261.4 305.9 261.5 306 261.7 306.4 261.6 306.4 261.6 306.7
261.5 307.2 261.4 309 261.3 310.3 261.2 310.4 260.9 311 260.9 311.2
260.5 311.2 260 311.2 259.8 311.1 259.3 311.1 258.1 311.1 258.3 310.9
258.6 310.6 258.7 310.5 258.7 310.4 258.7 310.3 258.6 310.2 258.5
309.9 258.4 309.8 258.2 309.7 258.1 309.7 257.9 309.6 257.8 309.6
257.8 309.4 257.8 309.3 257.9 309.3 257.9 309.2 257.9 309.1 257.9
309 257.8 308.7 257.8 308.6 257.6 308.3 257.6 308.2 257.5 308.2 257.5
308.1 257.5 308 257.4 307.9 257.5 307.8 257.5 307.7 257.6 307.4 258
307.1 258.8 306.4 259 306.3 259 306.2 258.9 306 258.8 305.7 258.8
305.6 258.8 305.5 258.8 305.4 258.9 305.3 259.2 305 259.3 305 259.3
305.1 259.5 305 259.7 304.8 259.8 304.5 259.8 304.4 259.8 304.2 259.9
304 260 303.9 260.1 303.9 260.2 303.9 260.1 304 260.1 304.1 260.2
304.2 260.3 304.2 260.4 304.2 260.7 304.1 260.8 304.3 260.8 304.4
260.8 304.5 260.9 304.6 261.2 304.7 261.2 304.8 261.1 304.9 261.2
305.1 85 ls S 272.3 308.1 272.4 308.3 272.3 308.4 272.2 308.4 272.1
308.3 272.2 308.3 272.3 308.2 272.3 308.1 8 ls S 274.3 308.1 274.3
308.2 274.2 308.6 274.1 308.6 273.8 308.9 273.5 309.4 273.5 309.5
273.5 309.7 273.6 309.8 273.5 309.8 273.4 309.8 273.3 309.7 273.2
309.6 273.4 309.2 273.4 309 273.5 308.9 273.6 308.5 273.6 308.2 273.7
308.1 273.7 308 274.1 308.1 274.3 308.1 22 ls S 268.3 309.8 268.2
309.7 268.3 309.1 268.2 308.4 268 308.2 267.9 308.1 267.8 308 267.7
308.1 267.2 307.4 267.1 307.4 267.1 307.3 267 307.1 267.1 307 267.1
306.9 267 306.7 266.8 306.6 266.7 306.6 266.8 306.4 266.8 306.3 267.1
305.8 267.2 305.7 267.4 305.5 267.5 305.5 267.6 305.5 267.6 305.3
267.7 305.3 267.7 305.2 267.9 305.2 268.1 305.2 268.4 305.3 268.6
305.4 269.2 305.7 269.2 305.8 269.3 305.8 269.3 306 269.2 306 269.3
306.1 269.3 306.2 269.6 306.9 269.9 307.2 270.1 307.2 270.1 307.3
270.2 307.5 270.3 307.7 270.3 307.8 270.4 307.7 270.7 308 270.7 308.1
270.8 308.3 270.8 308.6 270.8 308.7 270.9 308.7 271.1 308.5 271.4
308.4 271.4 308.6 271.2 309 271 309 270.9 309 270.3 308.8 270 308.5
269.9 308.4 269.8 308.2 269.7 308.2 269.7 308.1 269.6 308.8 269.1
308.7 268.6 308.6 268.5 308.6 268.4 309.2 268.4 309.6 268.3 309.8
71 ls S 273.3 306.9 273.4 307.7 273.5 307.8 273.6 307.7 273.9 307.4
274.2 307.6 274.2 307.8 274.3 308.1 274.1 308.1 273.7 308 273.7 308.1
273.6 308.2 273.6 308.5 273.5 308.9 273.4 309 273.4 309.2 273.2 309.6
272.9 309.5 272.8 309.5 272.5 309.4 271.6 309.2 271 309.1 270.7 309
270.1 308.9 269.7 308.8 269.6 308.8 269.7 308.1 269.7 308.2 269.8
308.2 269.9 308.4 270 308.5 270.3 308.8 270.9 309 271 309 271.2 309
271.4 308.6 271.5 308.7 271.6 308.7 271.7 308.6 272 308.4 272.1 308.3
272.2 308.4 272.3 308.4 272.4 308.3 272.3 308.1 272.2 308 272.2 307.9
272.6 307.5 273.3 306.9 49 ls S 245.6 304 246.6 303.9 246.6 304.4
246.6 304.7 246.6 304.8 246.8 306.7 246.8 307.2 246.8 307.8 246.9
308.3 246.9 308.7 246.9 309.1 246.4 309.2 246.3 309.2 245.4 309.2
244.9 309.3 244.1 309.4 243.7 309.4 242.8 309.5 242.2 309.6 241.7
309.6 241.1 309.7 240 309.9 239.9 309.4 239.8 308.9 239.7 308.1 239.5
306.6 239.3 305.5 239.2 304.7 239.9 304.6 241.5 304.4 241.9 304.3
242.4 304.3 243.3 304.2 244.5 304 245.5 304 245.6 304 36 ls S 261.2
304.7 260.9 304.6 260.8 304.5 260.8 304.4 260.8 304.3 260.7 304.1
260.4 304.2 260.3 304.2 260.2 304.2 260.1 304.1 260.1 304 260.2 303.9
260.2 303.5 260.1 303.4 260 303.4 259.9 303.3 260.5 303.3 260.9 303.3
261.4 303.4 261.4 303.5 261.6 303.6 262.4 303.7 263 303.8 263.1 303.8
263.5 303.8 263.7 303.8 264.1 303.8 264.8 303.9 265.4 304 265.9 304
266 304.1 266.3 304.2 266.5 304.4 266.7 304.6 267.6 305.5 267.5 305.5
267.4 305.5 267.2 305.7 267.1 305.8 266.8 306.3 266.8 306.4 266.7
306.6 266.7 306.7 266.4 307 266.3 307 266.2 306.9 266 306.8 266 306.7
265.9 306.8 265.8 306.8 265.7 306.8 265.3 306.8 265 306.9 264.9 307.1
264.7 307.2 264.4 307.2 264.3 307.2 264.3 307.1 264.3 307 264.4 306.9
264.4 306.8 264.1 306.7 263.9 306.6 263.8 306.6 263.8 306.5 263.8
306.4 263.8 306.3 263.4 305.6 263.3 305.6 263.1 305.6 263 305.6 262.9
305.8 262.9 305.7 262.8 305.5 262.5 305.3 262.2 305.3 261.6 305.3
261.3 305.1 261.2 305.1 261.1 304.9 261.2 304.8 261.2 304.7 82 ls
S 253.6 307.6 253.2 307.6 252.5 307.6 252.1 307.6 251.6 307.6 251
307.6 250.4 307.6 249.8 307.7 248.7 307.7 248.2 307.7 247.5 307.8
246.8 307.8 246.8 307.2 246.8 306.7 246.6 304.8 246.6 304.7 246.6
304.4 246.6 303.9 247.1 303.8 247.6 303.8 248 303.8 248.7 303.7 249.3
303.7 250.3 303.7 250.7 303.7 251.4 303.7 252.9 303.7 253.2 303.7
253.9 303.7 254 303.7 254.4 303.7 254.4 305.5 254.4 305.6 254.4 306.4
254.2 306.5 254.1 306.7 253.8 307 253.8 307.4 253.6 307.6 39 ls S
272.3 308.1 272.3 308.2 272.2 308.3 272.1 308.3 272 308.4 271.7 308.6
271.6 308.7 271.5 308.7 271.4 308.6 271.4 308.4 271.1 308.5 270.9
308.7 270.8 308.7 270.8 308.6 270.8 308.3 270.7 308.1 270.7 308 270.4
307.7 270.3 307.8 270.3 307.7 270.2 307.5 270.1 307.3 270.1 307.2
269.9 307.2 269.6 306.9 269.3 306.2 269.3 306.1 269.2 306 269.3 306
269.3 305.8 269.2 305.8 269.2 305.7 268.6 305.4 268.4 305.3 268.1
305.2 267.9 305.2 267.7 305.2 267.7 305.3 267.6 305.3 267.6 305.5
266.7 304.6 266.5 304.4 266.3 304.2 266 304.1 266.5 304.1 267.4 304.3
267.8 304.3 267.8 304.4 268.1 304.4 268.4 304.4 269.4 304.5 269.8
304.6 270.7 304.8 271.1 304.9 271.4 304.9 273 305.3 273.4 305.4 273.6
305.4 273.9 305.5 274 305.5 274 305.7 274 305.8 273.9 306 273.5 305.8
273.4 305.9 273.5 306.5 273.3 306.7 273.3 306.9 272.6 307.5 272.2
307.9 272.2 308 272.3 308.1 72 ls 274.1 307.4 274.2 307.6 273.9 307.4
273.9 307.2 273.7 306.7 273.7 306.5 273.9 306.3 273.8 306.6 274.1
307.4 9 ls S 259.9 303.3 260 303.4 260.1 303.4 260.2 303.5 260.2
303.9 260.1 303.9 260 303.9 259.9 304 259.8 304.2 259.8 304.4 259.8
304.5 259.7 304.8 259.5 305 259.3 305.1 259.3 305 259.2 305 258.9
305.3 258.8 305.4 258.8 305.5 258.8 305.6 258.8 305.7 258.9 306 259
306.2 259 306.3 258.8 306.4 258.6 306.5 258.5 306.6 258 307.1 257.6
307.4 257.5 307.7 257.5 307.8 257.4 307.9 257.5 308 257.5 308.1 257.5
308.2 257.4 308.2 257.2 308.4 257.2 308.5 257 308.5 256.6 308.5 256.3
308.4 256.2 308.4 255.8 308.4 255.6 308.4 254.7 308.4 254 308.4 253.7
308.4 253.2 308.4 253.2 308.3 253.3 308.1 253.5 307.7 253.6 307.6
253.8 307.4 253.8 307 254.1 306.7 254.2 306.5 254.4 306.4 254.4 305.6
254.4 305.5 254.4 303.7 254.4 303.4 254.4 303.2 254.4 303 255.2 303
255.5 303 255.8 303 256.3 303 256.4 303 256.6 303.1 257 303.1 257.5
303.1 258.1 303.1 258.5 303.1 258.7 303.2 259.1 303.2 259.3 303.1
259.3 303 259.3 302.9 259.2 302.8 259.1 302.8 259 302.7 258.9 302.5
259 302.5 259.6 302.6 259.7 302.6 259.8 302.8 259.8 303 259.8 303.1
259.8 303.2 259.8 303.3 259.9 303.3 259.8 303.2 259.9 303.2 259.9
303.3 94 ls S 239.2 304.7 238.2 304.8 237.8 304.9 237.5 305 236.8
305.1 235.9 305.2 235.2 305.4 234 305.6 234 305.4 233.8 304.6 233.7
304.4 233.6 304.4 233.5 304.5 233.5 304.6 233.3 304.6 233.2 304.6
233.1 304.6 233 304.5 233 304.1 233 303.6 233 303.4 233 303.3 232.9
303.2 232.8 303.1 232.8 303 233 302.6 233.2 302.3 233.2 302.2 233.2
302.1 233.1 302 233 302 232.9 302 232.7 301.8 232.7 301.6 232.7 301.5
232.6 301.3 232.5 301.2 232.3 301.1 232.3 301 232.2 300.7 232.3 300.7
232.3 300.6 232.4 300.6 232.5 300.5 232.5 300.4 232.4 300.3 232.3
300.3 232.3 300.2 232.1 300.3 232 300.1 232 300 233.5 299.1 234.5
298.4 235.5 297.8 235.8 297.7 236.5 297.5 238.1 297.3 238.3 298.7
238.4 299.2 238.6 300.5 238.7 301.5 238.8 302 239 303.4 239.2 304.7
64 ls S 254.4 299.3 254.5 299.3 254.5 299.2 254.6 299.2 254.6 299.6
254.6 300 254.6 300.4 254.6 300.7 254.6 300.9 254.6 301.6 254.6 302
254.5 302.5 254.4 303 254.4 303.2 254.4 303.4 254.4 303.7 254 303.7
253.9 303.7 253.2 303.7 252.9 303.7 251.4 303.7 250.7 303.7 250.3
303.7 249.3 303.7 248.7 303.7 248 303.8 247.6 303.8 247.1 303.8 246.6
303.9 245.6 304 245.5 303.3 246.4 303.2 247.5 303.1 248.1 303.1 248.7
303.1 248.7 302.5 248.6 301.7 248.6 301.2 248.6 300.8 248.6 300.5
248.9 300.3 249.4 300 249.5 300 249.8 300 250.1 299.9 250.3 299.9
250.8 299.6 250.9 299.5 251 299.6 251.3 299.6 252 299.6 252.3 299.5
252.4 299.4 252.5 299.3 252.6 299.3 253.1 299.5 253.3 299.6 253.5
299.6 253.7 299.6 254.2 299.4 254.4 299.3 61 ls S 273.9 303.1 274
303.1 274.1 303.4 273.9 303.5 273.8 303.7 273.8 303.9 274.2 303.9
274.4 304.2 274.5 304.4 274.5 304.6 274.4 304.7 274 304.8 274 304.9
274.3 305 274.1 305.3 273.9 305.5 273.6 305.4 273.4 305.4 273 305.3
271.4 304.9 271.1 304.9 270.7 304.8 269.8 304.6 269.4 304.5 268.4
304.4 268.1 304.4 268.1 304.3 267.9 303.9 267.7 303.7 267.2 303.5
266.9 303.3 266.7 303 266.3 302.7 266.2 302.7 266.1 302.7 265.9 302.6
265.6 302.2 265.6 301.9 265.8 301.9 265.9 301.9 266 301.9 266.4 302
266.9 302.1 267.1 302.2 267.3 302.3 267.4 302.3 267.6 302.4 269 302.6
269.2 302.6 269.4 302.4 269.4 302.2 269.6 302.3 269.9 302.3 270.6
302.4 270.9 302.2 271.4 301.9 272 301.5 272.6 301.6 272.7 301.9 272.9
302.4 273.3 302.8 273.9 303 273.9 303.1 63 ls 274 303.1 273.9 303.1
273.9 303 274 303.1 4 ls S 265.6 301.9 265.6 302.2 265.9 302.6 266.1
302.7 266.2 302.7 266.3 302.7 266.7 303 266.9 303.3 267.2 303.5 267.7
303.7 267.9 303.9 268.1 304.3 268.1 304.4 267.8 304.4 267.8 304.3
267.4 304.3 266.5 304.1 266 304.1 265.9 304 265.4 304 264.8 303.9
264.1 303.8 263.7 303.8 263.5 303.8 263.1 303.8 263 303.8 262.4 303.7
261.6 303.6 261.4 303.5 261.4 303.4 260.9 303.3 260.5 303.3 259.9
303.3 259.9 303.2 259.8 303.2 259.9 303.3 259.8 303.3 259.8 303.2
259.8 303.1 259.8 303 259.8 302.8 259.7 302.6 259.6 302.6 259.7 302.5
259.7 302.4 259.3 301.8 259.4 301.5 259.4 301.4 259.3 301.4 259.2
301.3 259.1 301.2 259.7 301.3 260.2 301.3 260.5 301.3 261.2 301.4
261.4 301.4 261.6 301.4 262.4 301.5 262.9 301.5 263.4 301.6 263.9
301.7 264.2 301.7 264.5 301.7 265.3 301.8 265.6 301.9 65 ls S 255.6
294.5 255.6 294.6 255.6 294.7 255.6 294.8 255.5 295 255.5 295.2 255.6
295.2 255.6 295.3 255.7 295.3 255.7 295.5 255.8 295.8 255.7 296 255.6
296.3 255.4 296.6 255.2 297.1 255.1 298.3 255.1 298.4 255.1 298.8
255.1 299.1 255.1 299.2 255 299.2 254.6 299.2 254.5 299.2 254.5 299.3
254.4 299.3 254.2 299.4 253.7 299.6 253.5 299.6 253.3 299.6 253.1
299.5 252.6 299.3 252.5 299.3 252.4 299.4 252.3 299.5 252 299.6 251.3
299.6 251 299.6 250.9 299.5 250.8 299.6 250.3 299.9 250.1 299.9 249.8
300 249.5 300 249.4 300 248.9 300.3 248.6 300.5 248.6 300.8 248.6
301.2 248.6 301.7 248.7 302.5 248.7 303.1 248.1 303.1 247.5 303.1
246.4 303.2 245.5 303.3 245.4 302.7 245.4 302.3 245.4 302.1 245.3
301.3 245.2 300.4 245.2 299.8 245.1 298.6 245 297.5 245 297.4 242.9
297.6 241.6 297.7 241.2 297.8 241 297.8 240.9 297.8 240.9 297.7 240.9
297.5 241 297.5 241.3 297 241.6 296.9 241.8 296.6 242.2 296.1 242.7
295.7 242.9 295.2 242.9 294.8 243.2 294.3 243.5 293.9 244.5 293.4
244.7 293.6 245 294.1 245.2 294.4 245.5 294.5 246.6 294.3 246.8 294.1
247.1 293.7 247.5 293.1 247.8 292.2 248.2 291.8 248.7 291.3 248.8
290.5 249.2 289.8 249.8 289.4 250.1 289.2 250.7 289.1 251.5 289 251.3
289.4 100 ls 251.3 289.4 251.1 290 251.1 290.1 251 290.4 251.4 291.3
251.6 291.6 252 292 253.3 292.7 253.8 293.3 254.1 293.7 255.2 294
255.3 294.2 255.4 294.4 255.5 294.4 14 ll S 239.2 304.7 239 303.4
238.8 302 238.7 301.5 238.6 300.5 238.4 299.2 238.3 298.7 238.1 297.3
239.1 297.2 239.1 297.7 240.2 297.6 241 297.5 240.9 297.5 240.9 297.7
240.9 297.8 241 297.8 241.2 297.8 241.6 297.7 242.9 297.6 245 297.4
245 297.5 245.1 298.6 245.2 299.8 245.2 300.4 245.3 301.3 245.4 302.1
245.4 302.3 245.4 302.7 245.5 303.3 245.6 304 245.5 304 244.5 304
243.3 304.2 242.4 304.3 241.9 304.3 241.5 304.4 239.9 304.6 239.2
304.7 38 ls S 265.5 296.5 265.3 297.4 265.2 297.5 265.2 297.6 265.2
297.7 265.3 297.8 265.3 298 265.3 298.1 265.4 298.1 265.4 298.2 265.3
298.5 265.2 298.6 265.1 298.6 265.1 298.7 265 298.9 265 299 264.9
299.3 264.8 299.7 264.8 299.8 264.7 300 264.5 300.5 264.5 300.8 264.4
301.1 264.2 301.7 263.9 301.7 263.4 301.6 262.9 301.5 262.4 301.5
261.6 301.4 261.4 301.4 261.5 301.3 261.5 300.2 261.5 299.1 261.4
297.7 261.4 297.3 261.5 297 261.6 295.8 261.7 295.3 261.8 295.3 262
295.3 262.1 295.8 262.2 295.7 262.3 295.4 262.5 295.2 262.4 295.2
262.6 295.2 262.8 295.4 262.8 295.5 262.8 295.6 262.7 295.8 262.7
295.9 262.5 296 262.5 296.2 263 296.2 263.5 296.3 263.9 296.3 264.3
296.4 265 296.5 265.5 296.5 59 ls S 261.5 300.2 261.5 301.3 261.4
301.4 261.2 301.4 260.5 301.3 260.2 301.3 259.7 301.3 259.1 301.2
259.2 301.2 259.2 301.1 259.1 301 259 301 258.9 300.8 258.8 300.4
258.5 300 258.2 299.2 258.2 299.1 258.4 298.9 258.3 298.7 258.3 298.5
258.3 298.4 258.4 297.9 258.6 297.7 258.6 297.4 258.5 297.2 258.3
297 258.2 296.9 258.2 296.8 258 296.4 257.9 295.9 258.5 295.9 258.6
295.9 259.2 295.9 259.4 295.9 259.5 296 260.1 296 260.1 295.9 260.1
295.8 260 295.5 260.3 295.1 260.4 294.9 260.5 294.9 260.7 295.1 261.1
295.3 261.4 295.2 261.6 295.2 261.7 295.2 261.7 295.3 261.6 295.8
261.5 297 261.4 297.3 261.4 297.7 261.5 299.1 261.5 300.2 54 ls S
269.5 297 269.5 297.1 269.7 298.3 269.7 298.6 269.6 298.8 269.6 298.9
269.5 299.1 269 299.7 269 299.8 268.9 299.8 268.8 299.8 268.7 299.9
268.6 300 268.5 300.2 268.5 300.3 268 300.6 267.9 300.7 267.8 300.7
267.7 300.8 267.4 301.2 267.3 301.3 267.2 301.4 267.1 301.4 267 301.4
266.7 301.6 266.7 301.7 266.8 301.9 266.9 302 266.9 302.1 266.4 302
266 301.9 265.9 301.9 265.8 301.9 265.6 301.9 265.3 301.8 264.5 301.7
264.2 301.7 264.4 301.1 264.5 300.8 264.5 300.5 264.7 300 264.8 299.8
264.8 299.7 264.9 299.3 265 299 265 298.9 265.1 298.7 265.1 298.6
265.2 298.6 265.3 298.5 265.4 298.2 265.4 298.1 265.3 298.1 265.3
298 265.3 297.8 265.2 297.7 265.2 297.6 265.2 297.5 265.3 297.4 265.5
296.5 265.6 296.2 265.7 296.2 267.7 296.3 268.5 296.4 268.7 296.4
268.8 296.3 268.8 296.2 268.8 296.1 268.9 296.1 269 296.2 269 296.4
269 296.5 268.9 296.5 268.9 296.7 269 296.8 269.5 296.7 269.5 297
77 ls S 269.9 298.6 270.8 299.5 271.3 300.2 271.5 300.4 271.7 301.2
272 301.4 272 301.5 271.4 301.9 270.9 302.2 270.6 302.4 269.9 302.3
269.6 302.3 269.4 302.2 269.4 302.4 269.2 302.6 269 302.6 267.6 302.4
267.4 302.3 267.3 302.3 267.1 302.2 266.9 302.1 266.9 302 266.8 301.9
266.7 301.7 266.7 301.6 267 301.4 267.1 301.4 267.2 301.4 267.3 301.3
267.4 301.2 267.7 300.8 267.8 300.7 267.9 300.7 268 300.6 268.5 300.3
268.5 300.2 268.6 300 268.7 299.9 268.8 299.8 268.9 299.8 269 299.8
269 299.7 269.5 299.1 269.6 298.9 269.6 298.8 269.7 298.6 269.9 298.6
47 ls S 258.3 298.5 258.3 298.7 258.4 298.9 258.2 299.1 258.2 299.2
258.5 300 258.8 300.4 258.9 300.8 259 301 259.1 301 259.2 301.1 259.2
301.2 259.1 301.2 259.2 301.3 259.3 301.4 259.4 301.4 259.4 301.5
259.3 301.8 259.7 302.4 259.7 302.5 259.6 302.6 259 302.5 258.9 302.5
259 302.7 259.1 302.8 259.2 302.8 259.3 302.9 259.3 303 259.3 303.1
259.1 303.2 258.7 303.2 258.5 303.1 258.1 303.1 257.5 303.1 257 303.1
256.6 303.1 256.4 303 256.3 303 255.8 303 255.5 303 255.2 303 254.4
303 254.5 302.5 254.6 302 254.6 301.6 254.6 300.9 254.6 300.7 254.6
300.4 254.6 300 254.6 299.6 254.6 299.2 255 299.2 255.1 299.2 255.1
299.1 255.1 298.8 255.1 298.4 255.4 298.4 255.7 298.4 256 298.5 256.3
298.5 257.3 298.5 258 298.5 258.2 298.5 258.3 298.5 64 ls S 258.2
296.9 258.3 297 258.5 297.2 258.6 297.4 258.6 297.7 258.4 297.9 258.3
298.4 258.3 298.5 258.2 298.5 258 298.5 257.3 298.5 256.3 298.5 256
298.5 255.7 298.4 255.4 298.4 255.1 298.4 255.1 298.3 255.2 297.1
255.4 296.6 255.6 296.3 255.7 296 255.8 295.8 255.7 295.5 255.7 295.3
255.6 295.3 255.6 295.2 255.5 295.2 255.5 295 255.6 294.8 255.6 294.7
255.6 294.6 255.6 294.5 255.5 294.4 255.5 294.2 255.4 294.2 255.5
294.1 255.6 294.1 256.2 294.2 256.9 293.9 257.3 293.9 257.4 293.9
257.6 294.2 258 294.2 258.3 293.9 258.7 293.7 258.8 293.7 258.9 293.6
259.4 293.7 259.7 293.5 259.9 293.6 260.4 293.8 260.3 294.4 259.9
294.7 259.4 294.7 259.4 294.8 259.6 295.1 259.8 295.1 260.1 294.9
260.4 294.9 260 295.5 260.1 295.8 260.1 295.9 260.1 296 259.5 296
259.4 295.9 259.2 295.9 258.6 295.9 258.5 295.9 257.9 295.9 258 296.4
258.2 296.8 258.2 296.9 72 ls S 271.8 292.5 271.6 292.8 271.3 293.2
270.9 293.9 270.8 294.1 270.3 295 269.9 295.6 269.7 296.1 269.6 296.6
269.5 296.7 269 296.8 268.9 296.7 268.9 296.5 269 296.5 269 296.4
269 296.2 268.9 296.1 268.8 296.1 268.8 296.2 268.8 296.3 268.7 296.4
268.5 296.4 267.7 296.3 265.7 296.2 265.6 296.2 265.5 296.5 265 296.5
264.3 296.4 263.9 296.3 263.5 296.3 263 296.2 262.5 296.2 262.5 296
262.7 295.9 262.7 295.8 262.8 295.6 262.8 295.5 263.1 295.6 263.2
295.7 263.3 295.7 263.6 295.6 263.7 295.6 263.8 295.7 264.3 295.6
265.1 295.2 265.4 294.8 265.7 294.8 266.4 295.3 266.7 295.5 267.2
295.3 267.4 295.1 268.1 294.4 268.7 293.9 268.7 292.5 269.1 291.9
269.3 291.6 269.8 291.1 270 291 270.2 290.6 270.3 290.3 271.1 289.6
271.2 289.4 271.4 289.4 271.8 289.5 271.9 289.6 272 289.7 272.1 289.7
272.1 289.6 271.9 289.2 271.7 289 271.5 288.9 271.3 288.8 271.2 288.7
271.1 288.7 270.9 288.6 270.8 288.6 270.9 288.6 271.1 288.7 271.2
288.7 271.3 288.8 271.5 288.9 271.6 288.9 271.7 289 271.9 289.2 271.9
289.3 272.1 289.6 272.1 289.7 272.1 289.8 272.2 289.9 272.2 290.5
272.2 291.2 272.1 291.9 271.8 292.4 271.8 292.5 94 ls S 259.6 318.6
259 318.3 259 318.2 259 318.1 259.1 318.2 259.5 318.5 259.6 318.6
7 ls 264.1 315.6 263.9 315.7 263.8 315.7 263.7 315.8 263.3 315.9
263.1 315.8 263 315.6 262.8 315.1 262.8 315 262.8 314.8 262.8 314.6
262.7 314.4 262.6 314.5 262.6 314.7 262.4 314.7 262.2 314.6 262.1
314.3 262.1 314.1 262.1 313.8 262 313.6 261.9 313.4 261.9 312.9 262
312.7 262.3 312.2 262.4 311.8 262.4 311.3 262.3 311.1 262.1 310.6
261.9 310.4 262.2 310.4 262.5 310.5 263.1 310.5 263.4 310.6 263.9
310.6 263.9 310.5 264.3 310.6 264.9 310.7 265.2 310.7 265.4 311.2
265.4 311.3 265.5 311.5 265.7 312 265.7 312.1 265.8 312.1 266 312.1
266 312.2 266 312.4 266 312.5 265.9 312.8 265.7 313.4 265.6 313.6
265.5 313.8 265.4 313.8 265.3 313.9 264.9 313.6 264.9 313.5 264.8
313.3 264.7 313.2 264.6 313.2 264.4 313.3 264.4 313.5 264.4 313.6
264.6 313.7 264.7 313.8 264.8 314.2 264.8 314.6 264.7 315.2 264.6
315.4 264.5 315.4 264.3 315.5 264.1 315.6 71 ls 259.7 317.5 259.6
317.4 259.6 317.3 259.7 317.2 259.7 317.1 259.8 317.1 259.9 317.4
260.2 317.6 260.3 317.7 260.4 317.7 260.3 317.8 259.9 317.7 259.7
317.6 259.7 317.5 14 ls 259.7 317.1 259.7 317.2 259.6 317.3 259.6
317.4 259.3 317.2 259.3 317.1 258.9 316.8 258.4 316.6 258 316.4 258.2
316.3 258.3 316.2 258.3 316.1 258.5 316.1 259.3 315.9 260.1 315.7
260.2 315.7 260.5 315.5 260.5 315.4 260.5 315.3 260.5 315.2 260.6
314.8 260.7 314.7 260.8 314.8 261 315.1 261 315.3 261.1 315.5 261.4
315.7 261.6 315.7 261.5 315.5 261.6 315.5 261.8 315.8 261.8 315.9
261.9 315.9 262 316 262.2 316 262.4 316 262.5 316.2 262.7 316.2 263
316.1 264 316.2 264 316.3 263.7 316.7 263.5 316.8 263.3 316.8 263.1
316.7 263 316.8 262.9 316.8 262.9 317 262.9 317.1 262.7 317.1 261.9
316.9 261.6 316.7 261.5 316.5 261.2 316.5 260.8 316.5 260.5 317 260.3
317 260 317.1 259.8 317.1 259.7 317.1 60 ls S 275.3 353.6 275.4 353.7
275.7 354.1 275.9 354.4 275.6 354.7 275 354.8 274.6 354.8 274.1 354.7
274.2 354.4 274.5 353.9 274.7 353.8 275.1 353.6 275.3 353.6 13 ls
264.7 361 265.2 361 265.3 361.4 265.6 361.7 266 362 266.4 362.2 266.9
362.1 267.4 362.1 267.9 362 268.4 362 269.2 361.3 270 360.7 270.6
359.9 271.5 358.9 272 358 272.4 357.2 272.6 356.5 272.8 356.2 273.1
356.1 273.5 356.7 273.8 357.2 274.2 357.3 275.2 355.8 274.8 355.8
273.9 355.6 273.9 355.4 274.2 355.2 274.9 355.2 276 355.1 276.3 355.2
276.4 355 277 354 277.1 353.3 276.4 353.1 276.2 353 276.2 352.7 277.1
352.7 277.9 352.6 278.2 352 277.5 351.9 276.8 351.8 276.6 351.2 276.9
350.7 277.6 350.8 277.8 350.3 277.4 349.9 277.5 349.7 278 349.2 278.7
349 279.8 347.5 280.6 348.3 280.4 347 280.8 346.7 281.7 346.5 282
345.8 283.1 345.3 283.5 344.9 284.6 344.5 285.3 345.2 286.8 345.1
288 344.8 288 345.5 287.3 346.9 286.6 348.3 286.4 349 286.2 350.8
285.7 351.6 285.5 353.5 286.1 354.2 286.6 354.9 286.2 355.6 286.6
356.8 286.2 358.1 286.6 358.8 287 359.5 287.2 360.2 287.4 360.8 287.8
361.4 287.8 362.4 287.8 363.4 287.9 364 287.9 364.5 287.2 364.4 286.8
364.4 286.3 363.9 286.2 363.5 285.7 363.1 285.1 363 284.7 363.6 285.3
364.2 285.2 364.6 284.4 364.8 284.5 365.2 284.7 365.3 285.2 365.4
286.3 365.5 287.2 365.7 287.5 366.2 286.3 366.6 285.4 366.6 100 ls
273.6 377.4 273.8 376.8 273.8 376.6 273.4 376.8 273 377.5 272.4 378.7
272 378.9 272 378.3 272 377.8 271.3 377.8 271.1 377.5 270.9 377.2
270.7 376.9 270.5 376.6 270.3 376.3 270.1 376.4 269.8 376.7 269.6
377 269.8 377.5 270.1 377.8 270.3 378 270.5 378.3 270.7 378.5 271
378.8 271.2 379.2 271.2 379.4 271.1 379.6 270.7 379.9 270.4 379.8
270.1 379.7 269.8 379.7 269 380 268.8 380 268.6 379.9 268.3 379.8
268 379.7 267.7 379.5 267.6 379.1 267.4 378.7 267.2 378.7 266.9 378.6
266.8 378.3 266.6 378 267.4 377.1 266.9 377 266.1 377.3 266 377 265.8
376.8 265.7 376.5 266.2 375.9 267.3 374.2 266.9 374.3 266.5 374.4
266 374.5 265.3 374.7 265 374.6 265.2 373.6 264.8 373.7 264.4 373.8
264.1 373.4 263.9 373.1 263.6 372.8 263.9 372.3 264.3 372 264.3 371.7
263.9 371.9 263.2 372.3 263 372.1 263 372 263.1 371.8 263.5 370.8
263.2 370.6 262.9 370.2 262.6 369.9 263.5 368.2 263.6 366.6 263.2
366.3 262.9 366 262.6 365.7 262.3 365.4 262 365.1 261.6 364.7 261.7
364.1 262.1 363.7 262.6 363.7 263 363.3 263.4 363.4 263.7 363.7 264
364 264.5 363.9 264.5 363.5 264.3 363.2 264 362.9 263.4 362.8 262.7
362.6 262.6 362.4 263.2 362 263.8 362.1 264.2 361.9 264 361.2 100
ll 285.4 366.6 284.6 366.6 283.5 366.4 282.8 365.9 282.2 366.7 282.4
367.2 282.6 367.8 282.8 368.3 283.2 368.2 283.9 368.3 284.3 369.2
283.3 369.5 282.9 369.3 282.7 369.7 283.1 370 283.5 370.3 283.4 370.8
283.1 370.9 282.1 370.9 282.2 371.5 280.8 372.4 280.1 372 279.7 373
280.1 373.3 280.5 373.6 279.7 374.1 279.1 374.2 278.3 374.4 277.1
375.5 276.7 376 276.2 377.1 276 377.4 275.3 377.3 275.4 377.8 275.5
378.3 275.2 378.8 275 379.4 274.8 379.9 274.7 380.4 274.3 380.6 273.8
380.5 273.4 380.3 273.1 380.1 273.4 379.6 273.5 379.2 273.5 378.8
273.5 378.4 273.5 378 48 ll S 265.8 330.7 265.8 330.8 265.6 330.9
265.5 330.9 265.5 330.7 265.4 330.4 265.3 330.2 265.2 330 265.1 329.9
265.2 329.8 265.3 329.7 265.5 329.9 265.6 330 265.6 330.3 265.7 330.6
265.8 330.7 16 ls 280.3 325.7 279.7 325.6 279.5 325.5 279.6 325.4
280.4 325.1 280.9 325.1 281.7 325.2 282 325.3 282.1 325.5 281.8 325.6
281.2 325.7 280.8 325.8 280.3 325.7 13 ls 266.7 329 266.9 329.3 266.7
329.1 266.7 329 4 ls 276.6 328.6 276.7 328.7 276.6 328.8 276.4 328.9
276.4 328.7 276.4 328.4 276.4 328.3 276.3 328.3 276.1 328.3 276 328.6
276.1 328.7 276.1 328.8 276 329.1 275.7 329.3 275.4 329.3 275 329.8
275 330.3 275.2 330.5 275.2 330.7 275.2 330.8 275 330.9 274.8 331.2
274.9 331.3 275.2 331.1 275.5 331.2 275.3 331.4 275.1 331.7 275.2
331.7 275.3 331.7 275.4 331.7 275.7 331.4 276.3 331.2 276.7 331.3
276.9 331.5 277.2 331.6 277.3 331.6 277.6 331.6 277.8 331.6 277.8
332.2 277.7 332.2 277.6 332.4 277.8 332.7 277.9 332.7 277.7 333 277.6
332.9 277.5 333 277.2 333.2 276.8 333.5 276.6 333.7 276.5 334.2 276.5
334.3 276.5 334.4 276.6 334.5 276.5 335 276.4 335.2 276.3 335.5 276.2
335.5 276 335.6 275.6 335.9 275.5 336.6 275.5 336.7 275.8 336.9 275.9
337 275.8 337.1 275.6 337.1 275.5 336.9 274.9 336.9 274.8 336.9 274.8
337 274.9 337.1 275 337.2 274.9 337.5 274.7 337.6 274.6 337.7 274.2
338.6 274.4 338.7 274.3 338.8 274.2 338.8 274.2 338.6 274.2 338.5
274.2 338.3 274.2 338.2 274.1 338 274 337.8 274.2 337.5 274.3 337.3
274.2 337.1 274.1 337.1 274.1 336.5 273.8 336.1 273.3 335.4 273.3
334.8 272.8 335 272.8 335.4 272.5 335.9 272.2 335.9 272 334.8 271.8
334.6 271.5 334.9 271.7 336.1 100 ls 275.5 317.7 275.6 317.8 275.8
317.9 276 318 276 318.2 276.2 318.6 276.3 318.8 276.3 318.9 276.2
318.9 276.2 319 276.2 319.2 276.2 319.9 276.6 321.1 276.7 321.1 276.8
320.9 277.1 321.2 277.3 321.4 277.2 321.6 277.1 321.9 277.3 322.1
277.7 322.2 277.8 322.1 278 322.1 278.1 322.2 278.3 322.3 278.4 322.4
278.6 322.6 279 322.8 279.2 322.9 279.7 322.9 280.3 323.4 280.3 324.2
280.1 324.3 279.7 324.5 279.4 324.5 278.9 324.4 278.1 323.9 277.1
322.9 276.6 322.3 276 321 275.6 320.1 275.1 319.6 275.3 320 275.5
320.7 275.8 321.7 276.2 322.8 276.5 323.2 276.9 323.7 277.4 323.9
277.3 324.6 277.8 325.3 278.7 325.7 279.6 326.1 280.5 326.4 281.4
326.7 282.2 327.1 282.9 327.5 283.3 328.8 283.5 329.2 284.4 329.8
284.1 330.5 283.9 330.4 283.1 330.1 282.3 329.7 281.5 329.3 280.7
329 279.8 328.7 279 328.3 278.9 328.4 278.5 328.8 278.6 329 278.7
329.1 279 329.3 278.7 329.6 278.6 329.7 278.5 329.8 278.4 329.6 278.3
329.3 278.3 329.2 278.4 328.9 278.6 328.7 278.7 328.4 278.6 328.3
278.6 328.1 278.6 328 278.8 327.9 278.6 327.5 278.4 327.7 278.5 327.8
278.4 327.9 278.2 328 277.9 328.2 277.6 328.1 277.6 328 277.4 327.8
277.3 327.8 277 327.8 276.9 327.8 276.8 328 276.6 328.5 100 ll 267.6
339.8 267.2 339.4 266.8 339.3 266.1 339.3 265.4 339.4 264.8 339 265
338.1 265.2 338 265.1 336.9 265.1 336.8 265.4 336.6 265.8 335.9 265.9
335.4 265.8 335.2 265.8 334.7 265.4 334.2 265.6 333.7 265.9 333.5
266.4 333.3 266.7 333.1 267 332.7 267.2 332.4 267.5 331.6 267.6 331.1
267.6 330.6 267.5 330.4 267.4 330 267.3 329.9 267.3 329.8 267.1 329.6
267.3 329.8 267.1 329.6 267.1 329.5 267 329.4 266.6 329 266.6 328.9
266.3 328.7 265.7 328.3 265.8 328.1 266 327.8 266 327.7 266.2 327.6
266.3 327.4 266.4 327.1 266.5 327 266.6 326.9 266.7 326.4 266.7 326.2
267 325.7 267.1 325.6 267.3 325.3 267.2 325 267.1 324.6 267.2 324.3
267 324.1 266.8 324.3 266.7 324.3 266.6 324.2 266.6 324 266.7 323.7
266.7 323.4 267 321.9 267.3 320.5 267.3 320.3 267.6 318.9 267.6 318.8
267.8 318.4 268 318.2 268.1 318 268.4 317.7 268.6 317.5 269.6 317.5
269.7 317.5 270 317.4 270 317.2 270.1 317.2 270.3 317.1 270.4 317.1
270.4 317.3 270.5 317.2 270.6 317.1 270.7 316.9 271 316.8 271.1 316.9
271.2 316.9 271.5 316.8 271.8 317.1 272.3 317.4 272.5 317.4 272.7
317.4 272.7 317 272.9 316.9 272.8 316.7 272.6 316.6 273.3 316.7 273.9
316.9 274 317 274.6 317.1 275.2 317.3 275.5 317.4 100 ll 271.7 336.1
271.8 336.3 271.7 336.4 271.4 336.7 271 337.7 271 338.4 270.8 338.6
270.7 338.6 270.2 338.4 269.4 338.4 269.3 338.9 268.7 339.2 267.9
339.6 13 ll 267.4 330.1 267.4 330 267.5 330.3 267.4 330.1 4 ls S
284.2 321.2 284.4 321.3 284.6 321.3 284.8 321.4 285.3 322.2 285.2
322.5 284.8 322.3 284.7 322.1 284.6 322 284.4 321.9 284.5 322.8 284.4
323.1 284.2 323.3 284 323.2 283.9 322.6 283.8 321.7 284 321.3 284.2
321.2 18 ls 280.7 318.5 280.5 318.2 280.6 317.8 280.9 317.3 281.4
317.2 281.7 317.4 282 317.9 282.1 318.3 282.2 318.6 282.1 319 282.3
319.1 282.4 319.3 282.4 319.2 282.5 319 282.8 319.1 283.1 319.5 284.4
320.7 284.3 321.2 284.2 321.2 284 321.3 283.9 321.3 283.7 321.2 283.3
321.1 282.6 320.9 281.8 320.8 281.7 320.8 281.6 320.7 281.5 320.5
281.4 320.3 281.2 319.8 281.2 319.7 281.6 319.9 282 320.2 282.5 320.2
281.6 319.4 280.7 318.6 280.7 318.5 37 ls S 248.7 334.6 247.9 334.6
247.1 334.7 246.8 334.7 246.2 334.8 246 334.8 245.1 334.9 244.1 335
243.1 335.2 242.9 333.8 242.6 332 242.3 330.2 242 328.1 241.9 327.6
241.8 327.1 241.6 325.7 241.4 324.4 241.2 323.1 241 321.8 240.8 320.4
241.2 320.4 242.3 320.2 243.2 320.1 244.1 320 245 319.9 245.9 319.8
246.9 319.7 247.7 319.6 248.1 319.6 248.2 319.6 248.2 319.8 248.3
320.3 248.3 320.8 248.3 321.3 248.3 321.7 248.3 322.2 248.3 323.6
248.3 324.5 248.3 325.5 248.3 325.7 248.3 326.3 248.3 326.4 248.3
326.9 248.3 327 248.3 327.3 248.3 327.8 248.3 328.7 248.3 328.8 248.4
329.3 248.5 331.6 248.6 333 248.7 334.4 248.7 334.6 53 ls S 240.8
320.4 241 321.8 241.2 323.1 241.4 324.4 241.6 325.7 241.8 327.1 241.9
327.6 242 328.1 242.3 330.2 242.6 332 242.9 333.8 243.1 335.2 242.4
335.3 241.6 335.5 240.8 335.6 240.1 335.8 239.3 335.9 238.6 336.1
237.8 336.3 237 336.5 236.3 336.7 235.8 335.1 235.4 333.5 234.9 331.9
234.5 330.3 234 328.8 234 328.5 234 328.2 234 327.9 234.3 327.6 234.5
327.4 234.7 327.3 234.8 327 234.9 326.9 234.9 326.8 234.9 326.7 234.8
326.6 234.9 326.3 235.3 325.8 235.5 325.8 235.7 325.4 235.8 325.2
235.9 325.2 236.1 324.7 236.1 324.6 236.1 324.5 236.3 324.3 236.4
324.1 236.5 323.9 236.5 323.8 236.7 323.5 236.8 323.3 236.9 323.3
237 323 237.1 322.6 237 322.5 237 322.2 237 322.1 236.9 322 236.9
321.8 236.9 321.7 237.1 321.4 237.2 321.4 237.2 321.3 237.3 321.1
238.9 320.8 239.6 320.6 240.1 320.5 240.8 320.4 69 ls S 275.2 331.7
275.1 331.7 275.3 331.4 275.5 331.2 275.2 331.1 274.9 331.3 274.8
331.2 275 330.9 275.2 330.8 275.2 330.7 275.2 330.5 275 330.3 275
329.8 275.4 329.3 275.7 329.3 276 329.1 276.1 328.8 276.1 328.7 276
328.6 276.1 328.3 276.3 328.3 276.4 328.3 276.4 328.4 276.4 328.7
276.4 328.9 276.6 328.8 276.7 328.7 276.6 328.6 276.6 328.5 276.8
328 276.9 327.8 277 327.8 277.3 327.8 277.4 327.8 277.6 328 277.6
328.1 277.9 328.2 278.2 328 278.4 327.9 278.5 327.8 278.4 327.7 278.6
327.5 278.8 327.9 278.6 328 278.6 328.1 278.6 328.3 278.7 328.4 278.6
328.7 278.4 328.9 278.3 329.2 278.3 329.3 278.4 329.6 278.5 329.8
278.6 329.7 278.7 329.6 279 329.3 278.7 329.1 278.6 329 278.5 328.8
278.9 328.4 279 328.3 279.8 328.7 280.7 329 281.5 329.3 282.3 329.7
283.1 330.1 283.9 330.4 284.1 330.5 284.4 329.8 284.5 329.9 284.6
330 285 330.9 285.1 331.2 284.9 331.6 284.5 331.7 284.2 332.7 283.9
332.8 283 332 282.9 332.7 282.6 333.1 282 332.3 281 331.1 280.7 331.5
281.2 332.3 281.7 333.2 282.4 333.3 282.3 333.6 281.1 333.5 280 333.5
279.6 334.1 278.9 334.1 278.4 334.4 278.2 334.6 277.5 336 277.5 336.1
276.6 336.8 275.8 337.5 274.9 338.2 274.9 338.3 274.4 338.7 100 ls
274.4 338.7 274.2 338.6 274.6 337.7 274.7 337.6 274.9 337.5 275 337.2
274.9 337.1 274.8 337 274.8 336.9 274.9 336.9 275.5 336.9 275.6 337.1
275.8 337.1 275.9 337 275.8 336.9 275.5 336.7 275.5 336.6 275.6 335.9
276 335.6 276.2 335.5 276.3 335.5 276.4 335.2 276.5 335 276.6 334.5
276.5 334.4 276.5 334.3 276.5 334.2 276.6 333.7 276.8 333.5 277.2
333.2 277.5 333 277.6 332.9 277.7 333 277.9 332.7 277.8 332.7 277.6
332.4 277.7 332.2 277.8 332.2 277.8 331.6 277.6 331.6 277.3 331.6
277.2 331.6 276.9 331.5 276.7 331.3 276.3 331.2 275.7 331.4 275.4
331.7 275.3 331.7 48 ll 289 327.3 289.1 327.4 289.3 327.7 289.3 327.9
289.3 328.1 289.1 328.2 288.8 327.7 288.4 328.1 288.5 328.6 287.6
328.6 287.1 327.9 287.1 328.2 286.9 328.2 286.7 327.9 286.2 328.1
286.3 328.5 285.9 328.6 285.8 328.2 285.5 328.2 285.6 328.5 285.6
329.4 285.5 330.1 285.2 329.8 284.7 328.1 284.6 326.8 284.4 325.5
284.8 325.2 284.6 324.7 284.8 324.4 285 324.4 285.5 324.8 286.4 325.2
286.6 325.2 286.9 325.2 287.2 325.6 287.5 326 287.5 325.9 287.5 326
287.6 325.8 287.6 325.5 288 325.7 288.4 326.1 288.3 325.6 288.1 325.2
288.2 325.1 288.4 325.1 288.9 326.2 288.9 326.3 289.3 326.2 289.3
325.6 289.6 325.6 290 325.5 290.4 325.7 290.2 326.9 289.9 327.2 289.7
327.5 289.5 327.4 289.1 327.2 289 327.3 59 ls S 224.7 329.2 224.8
330.5 224.8 330.8 224.9 331.5 225.2 331.9 225.4 332.1 225.1 332 224.7
332.3 224.4 332.5 224.1 331.8 224.2 330.6 224.6 329.4 224.7 329.1
224.7 329.2 14 ls 237 322.5 237.1 322.6 237 323 236.9 323.3 236.8
323.3 236.7 323.5 236.5 323.8 236.5 323.9 236.4 324.1 236.3 324.3
236.1 324.5 236.1 324.6 236.1 324.7 235.9 325.2 235.8 325.2 235.7
325.4 235.5 325.8 235.3 325.8 234.9 326.3 234.8 326.6 234.9 326.7
234.9 326.8 234.9 326.9 234.8 327 234.7 327.3 234.5 327.4 234.3 327.6
234 327.9 234 328.2 234 328.5 234 328.8 234.5 330.3 234.9 331.9 235.4
333.5 235.8 335.1 236.3 336.7 235.4 336.9 234.6 337.2 233.7 337.5
232.9 337.8 232.2 338 231.5 338.3 230.8 338.6 230 338.8 229.3 339.1
228.6 339.4 227.9 339.7 227.2 340.1 227 340.2 226.7 340.3 226.5 340.4
225.9 340.7 225.2 341 224.6 341.3 224 341.7 224.1 341.5 224 341.3
224.3 340.3 224.2 339.8 224.6 339.9 224.8 339.9 224.9 339.9 225 340
225.1 340 225.1 340.1 225.2 340.2 225.3 340.3 225.8 340.3 226 340.3
226.2 339.9 226.2 339.4 226.2 338.8 226.4 338.5 226.5 338 226.6 337.5
226.6 336.1 226.7 335.8 226.7 335.4 226.6 335.2 226.8 335.1 227 334.7
227.2 334.6 227.2 334.4 227.3 334.2 227.5 334.1 227.5 333.8 227.3
333.6 227.3 333.5 227.2 333 227 332.7 226.8 332.4 226.7 332.4 226.5
332.2 226.4 332.1 226.4 331.7 226.6 329.8 227 328.7 227 327.8 227.7
326.7 228.4 325.6 100 ls 228.4 325.6 228.4 325.5 228.7 324.9 229.2
323.9 229.6 323.5 229.6 323.4 229.6 323.3 229.7 323.1 229.9 323 231.5
322.5 232.4 322.3 233.2 322.1 233.7 321.9 234.4 321.7 234.7 321.7
235.6 321.5 236.7 321.2 237.3 321.1 237.2 321.3 237.2 321.4 237.1
321.4 236.9 321.7 236.9 321.8 236.9 322 237 322.1 237 322.2 26 ll
227 324.5 227.5 323.9 228.1 323 228.7 322.5 229 322.4 229.2 322.6
229.2 322.8 229.2 322.9 229.2 323.1 228.6 324 228.4 324.5 228.3 325
228.3 325.1 228.3 325 228.3 325.1 227.6 325.9 227.4 325.9 227 326.3
226.9 326.5 226.4 326.9 226 326.8 226.4 326.4 226.2 326 226.7 325.3
226.9 325.3 227 324.8 226.9 324.6 227 324.5 28 ls S 280.3 322.1 279.9
322.8 279.6 322.4 279.3 322.6 278.4 322.4 278.3 322.3 278.1 322.2
278 322.1 277.8 322.1 277.7 322.2 277.3 322.1 277.1 321.9 277.2 321.6
277.3 321.4 277.1 321.2 276.8 320.9 277 320.8 277.3 321.1 277.4 321.2
277.5 321.2 278 321 278.4 319.6 278.5 319.5 278.5 319.4 278.5 319.2
278.6 319.2 278.9 319.2 279 319.1 279 319 279 318.8 279.1 318.7 279.2
318.7 279.2 318.8 279.3 318.8 279.3 318.9 279.7 318.8 280.6 319.6
281.5 320.5 281.6 321.1 281.1 321 280.6 321.5 280 321.7 280.3 322.1
43 ls S 281.4 321.3 281.8 321.2 282.8 321.2 283 321.4 282.9 321.6
283.2 322.1 283 322 282.8 321.9 282.5 321.8 282.2 321.6 281.7 321.6
281.2 322.1 281.1 321.9 281 321.5 281.4 321.3 15 ls S 224 341.7 224.6
341.3 225.2 341 225.9 340.7 226.5 340.4 226.7 340.3 227 340.2 227.2
340.1 227.9 339.7 228.6 339.4 229.3 339.1 230 338.8 230.8 338.6 231.5
338.3 232.2 338 232.9 337.8 233.7 337.5 233.7 337.7 233.5 338.3 233.5
338.6 233.6 338.7 233.6 338.9 233.5 339 233.4 339 233.1 338.9 232.9
339 232.7 339.1 232.2 339.1 232.1 339.2 232.1 339.4 232.1 339.5 232.2
339.6 232.2 340.1 232.2 340.2 232.2 340.3 232 340.4 231.8 340.7 231.8
341 231.8 341.1 231.8 341.2 231.7 341.4 231.6 341.5 231.5 341.4 231.3
341.6 231.2 341.6 231.3 341.9 231.4 342 231.4 342.3 231.3 342.7 231.4
342.8 231.5 342.9 231.5 343 231.4 343.2 231.4 343.3 231.5 343.4 231.6
343.5 231.6 343.7 231.5 344.2 231.4 344.4 231.3 344.7 231.4 344.7
231.4 345 231.4 345.1 231 345.7 230.9 345.9 230.9 346.5 231.1 346.6
231.3 346.8 231.5 346.9 231.6 347.5 231.5 347.6 231.5 347.7 231.3
347.7 231.2 347.8 231 347.7 230.9 347.8 230.9 348 231 348.3 231.1
348.5 231.2 348.6 231.3 348.8 231.3 348.9 231.3 349.2 231.4 349.3
230.8 349.6 230.2 349.9 230.2 350 230.3 350.1 230.4 350.2 230.6 350.5
230.6 350.7 230.5 350.8 230.5 350.9 231.3 352.5 231.4 352.5 231.2
352.5 230.5 353.5 230.5 353.7 230.5 353.8 230.4 354 100 ls 230.4
354 230.4 354.1 230.2 354.4 229.9 354.5 229.7 354.7 228.8 353.1 227.8
351.4 226.9 349.7 225.9 348 225 346.3 224 344.7 222.9 342.8 223.2
342.5 223.3 342.6 223.5 342.3 223.8 342.3 224.1 342.2 223.9 341.9
18 ll S 248.7 334.6 248.7 334.4 248.6 333 248.5 331.6 248.4 329.3
248.3 328.8 248.3 328.7 248.3 327.8 248.3 327.3 248.3 327 248.3 326.9
248.3 326.4 248.3 326.3 248.3 325.7 248.3 325.5 248.3 324.5 248.3
323.6 248.3 322.2 248.3 321.7 248.3 321.3 248.3 320.8 248.3 320.3
248.2 319.8 248.2 319.6 249.3 319.5 249.8 319.5 250.3 319.5 251.2
319.5 251.9 319.5 252.6 319.5 253.6 319.5 253.7 319.5 253.7 320 253.7
320.1 253.7 320.2 253.7 321.7 253.6 323.1 253.6 324.6 254.8 325.8
255.1 326.2 255.8 327.1 256.9 328.5 258 329.9 258.1 330.3 257.4 330.4
256.7 330.7 255.8 330.3 255.5 330.4 255.6 330.8 255.4 331.2 255 332.4
255 332.7 254.7 332.7 254.2 332.7 254.1 332.6 253.8 333.1 253.8 333.9
253.8 334.3 253.8 334.4 252.9 334.4 252.1 334.4 251.2 334.4 250.4
334.5 250.1 334.5 248.7 334.6 65 ls S 265 316.3 264.9 316.3 264.8
316.3 264.7 316.3 264.7 316.2 265.7 315.9 266 315.9 266.1 316.1 266.2
316.3 266.1 316.4 265.8 316.4 265.5 316.3 265.2 316.3 265 316.3 14
ls 269.1 313.2 269.1 313.5 268.9 313.3 268.5 313.3 268.4 313.4 268.5
313.8 268.6 313.9 268.9 314.2 270.1 314.7 270.3 314.7 270.5 314.7
270.6 314.6 270.7 314.6 271 314.8 270.8 314.9 270.7 314.9 270.7 315
270.8 314.9 271.7 315.5 271.8 315.7 272.1 316.2 272.4 316.5 272.6
316.6 272.8 316.7 272.9 316.9 272.7 317 272.7 317.4 272.5 317.4 272.3
317.4 271.8 317.1 271.5 316.8 271.2 316.9 271.1 316.9 271 316.8 270.7
316.9 270.6 317.1 270.5 317.2 270.4 317.3 270.4 317.1 270.3 317.1
270.1 317.2 270 317.2 270 317.4 269.7 317.5 269.6 317.5 268.6 317.5
268.4 317.7 268.1 318 268 318.2 267.8 318.4 267.6 318.8 267.6 318.9
267.3 320.3 267.3 320.5 267 321.9 266.7 323.4 266.7 323.7 266.6 324
266.5 323.9 266.5 323.6 265.8 323.9 265.7 324.2 265 324.6 264.7 325.1
264.4 325.3 264 325.6 264 326.5 263.8 327.1 263.6 327.5 263.7 328.2
263.1 328.5 262.3 328.6 261.3 328.4 261 328.8 260.2 329 259.4 329.3
258.1 330.3 258 329.9 256.9 328.5 255.8 327.1 255.1 326.2 254.8 325.8
253.6 324.6 253.6 323.1 253.7 321.7 253.7 320.2 253.7 320.1 253.7
320 253.9 319.9 254.1 319.3 254.1 319.2 254.2 319.1 254.5 319 255.2
318.9 255.3 319 255.6 319 256.5 318.5 256.9 318.3 257.2 318.4 257.3
318.5 100 ls 257.6 318.4 257.8 318.4 258.2 318.4 258.5 318.4 258.7
318.3 258.8 318.5 258.9 318.8 259.3 319.2 259.5 319.5 259.6 319.5
259.7 319.4 259.6 319.3 259.5 319.1 259.5 319 259.8 319.2 259.9 319.4
259.8 319.5 260 319.7 260.2 319.6 260.3 319.6 260.6 319.5 260.8 319.6
261.1 319.6 261.3 319.6 261.5 319.4 261.7 318.9 261.9 318.6 262.2
318.6 262.8 318.7 262.8 318.6 262.7 318.4 262.7 318.2 263.1 318 263.2
317.9 263.1 317.8 263.1 317.4 263.2 317.4 263.4 317.1 263.4 316.8
263.5 316.8 263.6 316.8 263.8 316.7 264 316.6 264.8 316.6 265.6 316.7
266 316.7 266 316.6 266.2 316.6 266.4 316.6 266.6 316.6 266.9 316.6
267.2 316.2 267.4 316 267.7 315.7 267.9 315.6 268 315.5 268.2 315.3
267.8 314.8 267.4 314.9 267.1 315 266.9 315.1 266.8 315.2 266.6 315.3
266.5 315.5 266.6 315.7 266.2 315.6 266.2 315.5 266.3 315.5 266.6
315.3 266.7 314.8 266.6 314.6 266.5 314.4 266.4 314.1 266.6 313.3
266.5 313.1 266.2 312.7 266 312.5 266 312.4 266 312.2 266 312.1 265.9
312 266.1 311.9 266.1 311.7 266 311.7 265.5 311.6 265.5 311.2 265.7
311.2 266 311.3 266.2 311.4 266.5 311.6 266.7 311.9 267.1 312.3 267.5
312.4 267.9 312.3 268.3 312.3 267.9 312.4 268.1 312.6 268.8 312.9
269.2 312.9 269.3 313 100 ll 257.3 318.5 257.5 318.6 2 ll S 264.7
347.6 264.6 347.8 264.1 347.8 263.7 347.5 263.6 347 263.9 346.1 264.5
346.2 264.9 346.8 264.7 347.6 9 ls 262.1 339.3 261.9 339.3 261.2
339.1 260.9 338.4 261.1 338 261.5 338.1 262.1 339 262.1 339.3 8 ls
249.7 348.1 249.8 348 249.7 348.2 249.7 348.1 4 ls 261.7 354.7 262.4
354.7 262.4 354.9 261.7 355.7 261.2 355.7 260.7 355.8 260.2 355.8
260 355.8 260.4 354.9 261 354.3 261.4 354.6 261.7 354.7 12 ls 264.3
325.9 264 325.6 264.4 325.3 265 325.4 265.3 325.7 265.3 325.8 264.9
326.1 264.7 326.1 264.3 326 264.3 325.9 10 ls 251 347.5 251.2 347.3
252 347 252.7 346.7 253.2 347.1 253.4 347.3 253.3 347.4 252.9 347.9
252.5 348.4 251.9 349 251.5 348.5 251.6 348.1 251.1 347.8 251 347.5
14 ls 261.4 341.9 260.4 342.4 259.5 343 258.9 341.3 259.2 340.6 258.7
340.3 258.6 339.8 258.8 339.8 259.6 339.4 259.8 339.2 259.9 339.3
260.4 339.7 260.6 340.1 260.8 340.8 261.1 341 261.9 340.4 262.6 340.2
263 340.7 262.4 341.1 262 341.1 261.8 341.6 261.4 341.9 22 ls 253.6
352.3 253.9 352.3 254.1 352.8 254.2 353 254.1 353.2 253.7 353.5 254.3
353.6 254.7 353.5 255 353.9 255.3 354.8 255.6 355.5 255.2 355.6 254.6
355.7 254.1 355.9 253.3 355.6 253.1 354.4 253.1 353.4 253.2 353.3
253.3 352.6 253.3 352.2 253.6 352.3 21 ls 241 349 240.7 349.3 240.6
349.6 240 349.9 239.7 350.3 239.1 348.9 238.5 347.4 239 346.9 239.5
346.3 240 345.8 240.6 345.2 241.1 344.7 241.6 344.1 242.1 343.6 242.7
343.5 243.4 343.5 244 343.5 244.5 342.9 245.1 342.4 245.8 342.2 246.5
342 247.1 341.8 247.8 341.6 248.5 341.4 249.2 341.1 249.1 339.5 249
337.8 248.8 336.2 248.7 334.6 250.1 334.5 250.4 334.5 251.2 334.4
252.1 334.4 252.9 334.4 253.8 334.4 253.9 335 254.4 336 255 337.1
255.1 337.4 256 339.1 256.6 339.7 257.6 340.3 258.2 341.2 258.5 341.9
257.8 342.2 257.2 342.2 256.5 342.8 256 342.8 255.7 343 256.4 343.2
256.9 343 257.8 342.6 258.6 342.4 259 343.4 258.5 343.8 258.4 344
258.7 344.3 259.2 344.3 259.8 343.7 260.4 344.3 260.9 344.8 261.4
345.3 261.4 346 260.6 346.9 261.1 347.7 261.9 348.4 261.4 348.9 260.8
348.8 260.2 348.8 259.6 348.8 259 348.9 258.4 348.9 258.8 347.9 258.7
346.9 258.4 345.4 257.9 345 257.3 346.2 257.5 346.9 257.2 347.6 256.5
348 256.3 346.5 256 346.8 255.9 347.7 255.7 348.1 255.7 348.3 254.7
348.6 255.3 349.4 255.2 349.7 254.9 350.1 254.5 350.5 254.5 351.3
254.1 351.9 253.6 352.3 253.3 352.2 253.2 352 253 351.6 252.7 351.1
252.6 350.4 252.8 350.1 252.7 349.8 100 ls 252.7 349.8 252.7 349.3
252.9 348.9 253.7 348.4 254.3 348.4 254.1 347.8 254.4 347 253.5 346.1
253.3 344.5 252.8 344.9 252.7 346.3 251.8 346.7 250.9 345.8 250.2
345.7 249.6 345.7 249 346 248.3 346.3 247.5 347.2 247.3 346.9 246.4
346.5 246.1 345.5 245.5 346.6 244.9 346.7 244.4 346.4 243.6 346.4
242.8 346.6 242.3 346.9 242.4 347.5 242.8 347.5 242.8 348 242.6 348.4
242.2 348.7 241.9 348.8 33 ll 271.7 348.4 271.4 348.4 270.9 348.8
270.2 349.2 270 349.1 269.5 349.2 269.4 349.3 269.1 349.4 268.7 350.6
267.8 350.8 267.5 350.7 268.2 351.2 267.2 352.2 266.6 352.5 266 352.3
265.3 352.2 265 352.2 265.1 352.4 264.2 352.5 263.6 353.1 263 354.3
262.6 354.4 262 354.4 261.4 353.8 261.3 353.7 260.7 353.2 260.5 352.9
260.4 353 260.3 353.2 260.5 354.1 259.9 354.9 259.6 355.6 259 355.6
258.5 355.1 258.1 353 258.5 351.7 258.2 351.8 257.7 352.6 257.7 353.2
257.4 353.6 257.6 354.6 258.1 355.5 257.9 355.6 257.3 355.5 256.9
355.3 256.6 355.1 256.3 354.5 256.1 353.7 255.9 352.3 255.9 351.7
256.5 351.5 257.1 351.2 257.4 350.9 257 350.8 256.2 350.9 256.4 350.5
256.8 350 257.4 349.8 258.1 349.6 259.1 349.5 260 349.9 260.6 349.4
261.1 349.6 261.6 349.7 262.1 349.9 261.9 350.4 262.3 350.4 263.2
349.8 264 349.2 264 348.7 264.4 348.8 265 348.6 265.7 348.5 265.9
347.5 266.6 346.8 266.2 345.8 265.7 344.9 266.1 344.5 266.6 344 265.9
343.7 265.4 343.4 265.3 343.4 264.3 343.5 264.2 343.2 264 342.8 264
342.2 264.2 341.9 264.4 341.8 265.6 342.1 266.2 342.6 267.1 342.9
267.3 342.4 267.3 342.3 267.7 342 268 341.7 268.4 341 269.6 340.8
270.6 340.5 271.8 340.5 272.5 340.5 100 ls 272.5 340.5 272.5 340.7
272.6 340.9 271.1 341.6 269.8 342.2 270.1 342.5 271.2 342.2 272.3
341.9 272.8 341.6 272.9 341.6 272.9 342.7 272.8 343 272.2 344 271.3
344.6 270.5 344.9 269.8 345.2 269.5 345.6 269.6 346.2 269.9 346.7
270.7 346.2 271 346.2 271.1 345.8 272 345.2 272.7 345.1 272.6 345.6
272.3 346.3 272.8 346.3 272.9 347.1 272.8 347.3 273 348 272.3 348.4
272 348.1 271.7 348.3 33 ll 245.8 346.8 246.1 346.7 246.5 346.8 247
347 247.3 347.2 247.4 347.2 247.5 347.2 247.5 347.4 247.2 347.9 246.1
347.5 245.9 347.3 245.8 347 245.8 346.8 13 ls 263.9 337.8 264 337.9
264 338.5 264 338.7 263.8 338.9 263.5 338.8 263.4 338.5 263.5 337.9
263.6 337.8 263.8 337.6 263.9 337.8 11 ls S 231.8 352.3 231.6 352.2
231.3 352.5 230.5 350.9 230.5 350.8 230.6 350.7 230.6 350.5 230.4
350.2 230.3 350.1 230.2 350 230.2 349.9 230.8 349.6 231.4 349.3 231.3
349.2 231.3 348.9 231.3 348.8 231.2 348.6 231.1 348.5 231 348.3 230.9
348 230.9 347.8 231 347.7 231.2 347.8 231.3 347.7 231.5 347.7 231.5
347.6 231.6 347.5 231.5 346.9 231.3 346.8 231.1 346.6 230.9 346.5
230.9 345.9 231 345.7 231.4 345.1 231.4 345 231.4 344.7 231.3 344.7
231.4 344.4 231.5 344.2 231.6 343.7 231.6 343.5 231.5 343.4 231.4
343.3 231.4 343.2 231.5 343 231.5 342.9 231.4 342.8 231.3 342.7 231.4
342.3 231.4 342 231.3 341.9 231.2 341.6 231.3 341.6 231.5 341.4 231.6
341.5 231.7 341.4 231.8 341.2 231.8 341.1 231.8 341 231.8 340.7 232
340.4 232.2 340.3 232.2 340.2 232.2 340.1 232.2 339.6 232.1 339.5
232.1 339.4 232.1 339.2 232.2 339.1 232.7 339.1 232.9 339 233.1 338.9
233.4 339 233.5 339 233.6 338.9 233.6 338.7 233.5 338.6 233.5 338.3
233.7 337.7 233.7 337.5 234.6 337.2 235.4 336.9 236.3 336.7 237 336.5
237.8 336.3 238.6 336.1 239.3 335.9 240.1 335.8 240.8 335.6 241.6
335.5 242.4 335.3 243.1 335.2 244.1 335 245.1 334.9 246 334.8 246.2
334.8 246.8 334.7 247.1 334.7 247.9 334.6 248.7 334.6 100 ls 248.7
334.6 248.8 336.2 249 337.8 249.1 339.5 249.2 341.1 248.5 341.4 247.8
341.6 247.1 341.8 246.5 342 245.8 342.2 245.1 342.4 244.5 342.9 244
343.5 243.4 343.5 242.7 343.5 242.1 343.6 241.6 344.1 241.1 344.7
240.6 345.2 240 345.8 239.5 346.3 239 346.9 238.5 347.4 239.1 348.9
239.7 350.3 239.7 350.5 239.2 350.9 238.7 351.1 238.3 350.5 238.1
350.5 237.8 350.6 238.1 351.8 238 351.8 237.8 351.8 237.2 351.1 237.2
350.7 236.9 351.2 236.8 352 236.7 352.7 236.6 353.1 236.5 353 236.3
352.5 235.6 351.9 235 352.1 234.2 352.2 233.5 352.4 232.7 352.5 232
352.3 48 ll 262.4 372.3 262.6 372.7 262.3 373.2 261.6 373.6 261.1
373.7 260.8 373.7 260.5 373.7 260.1 373.7 259.8 373.7 259.4 373.6
259 373.4 258.7 373.3 258.4 373.2 258.1 373.1 257.9 373 257.6 372.8
257.3 372.7 257.1 372.6 256.7 371.9 256.6 371.4 257.1 371 257 370.9
256.6 371.2 256.1 371.5 255.8 371.4 255.5 371 255.1 370.7 254.8 370.3
254.4 370 254.1 369.6 254.2 369.5 254.3 369.4 254.7 368.6 255 368
255.7 367.6 256.1 367.6 256.5 367.6 256.9 367.6 257.3 367.7 257.7
368 258.1 368.4 258.4 368.5 258.7 368.7 258.7 368.5 258.4 368.2 258.1
367.8 257.5 367.4 257.1 367.2 257.6 366.7 257.3 366.6 257 367 256.5
367 256.3 367.1 256.1 367 256 366.7 256.5 365.9 257 365.4 257.1 365
256.9 364.7 257.5 364.7 258 364.8 257.8 364.2 257.4 364.4 256.7 364.3
256.3 364 256.1 363.5 256.1 362.9 256.7 362.8 257 362.5 257.3 362.1
257.4 362 257.4 361.7 256.9 361.9 256.8 362.2 256.3 362.5 256 362.3
255.9 362 256.5 361.2 255.9 361 255.5 360.6 255.5 360.1 255.7 359.8
256.4 359.7 256.9 359.7 257.4 359.7 257.7 359.8 258 360.1 258.4 360
258.9 360.3 259.4 360.2 259.8 360.2 260.2 360.5 260.6 360.8 260.3
361.2 259.7 361.5 259.8 363.1 260.2 363.1 260.5 363.3 260.7 364.1
260.6 364.7 100 ls 260.6 364.7 260.2 364.9 260.5 365.1 260.7 365.3
260 365.9 260.4 366.2 260.8 366.5 260.6 366.8 261 366.7 261.3 367.1
261.4 367.6 261.5 368.8 261.7 369.4 261.9 369.9 262.1 370.5 262.2
371.1 261.9 370.8 261.7 371 262.1 371.5 262.3 371.8 20 ll 253.8 360.6
253 360.8 252.6 360.7 252.6 360.3 252.8 359.9 253.2 359.4 253.8 359.4
254.1 359.6 254.6 358.7 254.5 357.6 254.7 356.9 254.9 356.7 255.7
356.5 256.2 356.5 256.7 356.6 257.2 356.6 257.8 356.7 258.4 356.8
259.3 356.8 260 357.2 260.2 357.9 260 358.5 259.7 358.9 259.2 359.1
258.7 359.1 258.2 358.9 257.8 358.7 257.2 358.3 256.7 358.5 255.8
358.7 255.5 359.1 255.4 359.3 255.9 359.2 255.4 359.7 254.8 360.2
254.1 360 254.1 360.3 253.8 360.6 38 ls 252.7 353.5 252.3 353.8 251.8
353.7 251.8 353.9 252 354.3 252.4 354.5 252.5 355.1 252.4 355.3 252.1
355.4 251.8 355.2 251.4 355.1 251.2 355.5 250.7 355.3 250.3 354.8
250.9 354.2 251 353.9 250.8 353.6 250.6 353.5 250.1 354.1 249.8 354.1
249.7 353.4 250 353.1 250.6 352.5 251.1 351.9 251.3 351.3 251.5 351.1
251.8 351.4 252.7 352.2 252.8 353 252.7 353.5 30 ls 250.6 363 251.1
362.6 251.4 362.2 251.7 362.3 251.8 362.7 251.5 363.1 251.6 363.6
251.4 364.1 250.8 364.6 250.6 364.5 250.5 364.9 250.1 365.2 249.6
365.2 249.5 364.9 249.6 363.5 250 363.1 250.6 363 17 ls 252.9 357.1
253.3 356.9 253.5 356.6 254.1 356.8 253.9 357.9 253.6 358.3 253.4
358.3 253.2 358.3 252.7 357.6 252.7 357.2 252.9 357.1 11 ls 253.3
362.4 253.3 363.2 252.9 363.7 252.4 364 252.2 364 252 363.4 252.3
362.6 252.7 362.2 253.3 362.4 9 ls 246.4 363 246.3 362.3 246.6 361.9
247.1 361.9 247.4 362.1 247.5 362.5 247.7 362.9 247.8 363 247.5 363.2
246.7 363.1 246.4 363 11 ls 248.5 354 248.9 354.6 249 355 248.7 355.4
248 355.4 247.8 355 248.2 354.7 248.5 354 8 ls 248 363.9 247.6 364.4
246.8 364 246.6 363.9 246.6 363.6 247 363.7 247.6 363.5 247.9 363.5
248 363.9 9 ls 247.8 354.7 247.3 354.9 247.1 354.5 247.2 353.4 247.3
352.3 246.9 352.2 246.6 354 246.3 354.4 246.2 354.5 246 352.9 245.9
351.3 245.8 349.7 245.3 349.8 244.8 349.9 244.2 350 243.7 350.1 243.2
350.2 242.7 350.3 242.1 350.4 241.6 350.5 241.9 349.5 242.7 349.1
243.4 348.8 243.2 348.3 243.3 347.7 244.2 347.6 244.4 347.7 245.3
347.6 246.3 347.9 246.7 348 247 348.5 247.2 348.7 247.3 348.5 247.3
348.3 247.7 348.1 248 347.9 248.2 347.6 249 347.4 249.2 347.4 249.5
347.6 249.7 347.7 249.8 348 249.7 348.3 249.6 348.4 249.2 348.3 249.1
348.5 249.4 348.8 249.7 348.9 249.9 348.7 250.2 348.6 250.3 348.8
250.3 349.4 250.2 349.5 249.9 349.5 249.3 350.1 248.8 350.5 248.5
351.1 248.7 351.8 248.4 353.3 247.8 354.7 60 ls 253 367.4 252.7 366.9
252.8 366.5 252.8 366.4 252.8 366.5 252.8 366.4 253 365.1 253.2 364.9
253.7 365 254.1 365.1 254.2 364.7 253.8 364.7 253.6 364.3 253.9 363.7
254.4 362.9 255 362.8 255.7 363.4 255.7 364 256 364 256.3 364.6 256.7
365 256 365.6 255.3 367.3 255 367.4 254.6 367.4 254.3 368.2 254.1
368.8 253.7 369 253.5 369 253.1 368.1 253.4 367.4 253 367.4 32 ls
251.3 360.1 251.2 360.1 250.9 359.9 251 359.5 250.8 359.6 250.5 359.8
250.4 359.4 250.5 359.3 250.5 359 250.5 358.9 250.4 358.8 250.3 358.7
250.2 358.7 250 358.4 250.1 358.2 250.7 358.3 250.7 358.4 251.3 358.4
250.9 357.9 251 357.3 251.5 357.3 252.1 357.3 252.2 357.5 252.1 358.1
252.3 358.4 252.2 359.8 252 360.1 251.5 360.1 251.4 360.1 251.3 360.1
30 ls 249.5 361.1 249.6 361.2 249.6 361.3 249.4 361.9 249.2 362.3
249.1 362.3 249 362.2 249.2 361.5 249.2 361.3 249.5 361.1 10 ls 251.5
360.1 251.3 360.1 251.4 360.1 251.5 360.1 4 ls S 247.9 359.9 247.9
360.7 247.8 360.8 247.6 360.8 247.1 359.9 247.3 359.7 247.3 359.4
247.1 359.2 247.3 359 247.4 358.5 247.1 358.6 246.8 358.7 246.6 357.4
247.1 357.6 247.5 357.5 248 357.5 248.6 357.6 248.8 358.1 248.9 358.9
248.7 359.2 248.5 359.3 248.3 359.1 248 359.4 247.9 359.9 24 ls S
246.6 357.4 246.8 358.7 246.4 358.8 246.4 359.3 246.1 359.9 245.5
360.4 245.4 360.6 245.2 360.7 244.8 360.3 244.4 360.2 244.2 359.7
244.1 359.2 243.6 358.8 244 358.5 244.3 358.2 245.1 358.1 245.7 358.2
246.3 358.3 246.5 358.2 246.4 358.1 246.1 357.9 245.9 357.9 245.3
357.7 244.7 357.5 244.8 357.4 245.1 357 245.5 356.9 246 357.1 246.5
357.4 246.6 357.4 30 ls 240.1 357.1 240.1 357 239.8 356.8 238.4 354.8
239.1 354 239.2 353 239.8 353.1 240.5 353.2 241.3 354 242.1 354.9
242.8 355.2 243.8 356.1 243.4 356.7 243 357.3 242.2 357.1 242.1 357.5
241.8 358 241.3 358.1 240.8 358.2 240.1 358.2 240.1 357.4 240.1 357.1
22 ls 245.9 351.3 246 352.9 246.2 354.5 246.1 354.6 246 354.2 245.4
354.1 244.9 354.6 244.4 355.1 244.2 355.4 243.7 355.3 243 354.7 242.5
353.8 241.6 353.4 241.7 352.8 242.1 352.6 242.5 352.6 242.5 352.4
241.8 352.3 241.5 352.2 241.8 351.4 242 351.4 242.6 351.3 243.2 351.2
243.9 351.1 244.7 350.7 244.8 350.3 244.2 350.3 243.7 350.4 243.2
350.5 242.6 350.6 241.6 350.5 242.1 350.4 242.7 350.3 243.2 350.2
243.7 350.1 244.2 350 244.8 349.9 245.3 349.8 245.8 349.7 245.9 351.3
40 ls 245 361.4 244.9 361.7 245.4 362.1 245.3 362.3 245.1 362.6 244.9
362.6 244.7 362.5 244.8 362.3 244.6 362.2 244.5 362.4 243.9 362.5
243.1 361.7 242.6 361.4 242.1 361.2 241.9 360.9 241.9 360.7 242.1
360.6 242.6 360.3 242.7 360.1 243 360.2 243.1 360.2 243.3 360.3 243.6
360.7 243.9 361.4 244.2 361.4 244 360.6 244.2 360.5 244.3 360.6 245
361.4 29 ls S 287.7 325.2 287.7 325.3 287.5 325.2 287.6 325 287.8
325 287.9 324.8 287.9 324.7 288 324.7 288 324.8 287.9 324.9 287.8
325 287.8 325.2 287.7 325.2 13 ls S 0 0 0 Fr /ESRI-Geometric-Symbols-Normal
ff 1.9 scf sf 287.3 323.7 m (#) SH 237.8 327.8 m (#) SH 229.9 330
m (#) SH 250.8 326.2 m (#) SH 278.8 320.1 m (#) SH 286.2 325.9 m
(#) SH 282 319.5 m (#) SH 259.9 321.9 m (#) SH 281.7 321 m (#) SH
272.3 324.3 m (#) SH 244.5 326.7 m (#) SH 219.9 351.9 m (#) SH 235.2
301 m (#) SH 256.6 300.2 m (#) SH 227.3 306.7 m (#) SH 242.6 306.2
m (#) SH 275 312 m (#) SH 273.2 308.3 m (#) SH 271.7 307.7 m (#) SH
269.4 292.8 m (#) SH 234.9 313.7 m (#) SH 259.1 307.3 m (#) SH 262
307.4 m (#) SH 254.9 309.5 m (#) SH 250 305.1 m (#) SH 263.8 304.3
m (#) SH 277 317.8 m (#) SH 272 307.7 m (#) SH 275.7 313.1 m (#) SH
263.2 312.6 m (#) SH 254 315.2 m (#) SH 259.4 297.5 m (#) SH 256.1
304.8 m (#) SH 239.6 316.8 m (#) SH 248.7 309 m (#) SH 231.3 308.7
m (#) SH 275.4 314.7 m (#) SH 273.9 309.9 m (#) SH 241.4 300 m (#) SH
271.7 312.8 m (#) SH 269.8 302.7 m (#) SH 248.5 317 m (#) SH 265.7
308.3 m (#) SH 250.8 301.1 m (#) SH 229.4 315.6 m (#) SH 270.5 310.1
m (#) SH 276.1 312.6 m (#) SH 269 300.2 m (#) SH 263 302.1 m (#) SH
248.9 295.6 m (#) SH 236.6 307.7 m (#) SH 274.1 315.4 m (#) SH 270.5
305.5 m (#) SH 230.3 319.8 m (#) SH 268.1 306.6 m (#) SH 258.1 313.4
m (#) SH 241.2 311.7 m (#) SH gr gs 197.9 381.5 197.9 287.9 291.5
287.9 291.5 381.5 197.9 381.5 5 ls cl np gr showpage end  errordict begin /handleerror {} def end 
%%Trailer
%%EOF
