Person ,Taxa
Yevonn Wilson-Ramsey,Iridaceae
Yevonn Wilson-Ramsey,Liliaceae
Yevonn Wilson-Ramsey,Cypripedium
John Myers,Burmanniaceae
John Myers,Dioscoreaceae
John Myers,Haemodoraceae
John Myers,Pontederiaceae
Barbara Alongi,Smilacaceae
Barbara Alongi,Orchidaceae
Barbara Alongi,Aletris
Barbara Alongi,Amianthium
Barbara Alongi,Chamaelirium
Barbara Alongi,Tulipa
Barbara Alongi,Uvularia
Bee F. Gunn,Agavaceae
Bee F. Gunn,Aloaceae
Bee F. Gunn,Stemonaceae
Kimberly J. Martin,Crinum
Kimberly J. Martin,Galanthus
Kimberly J. Martin,Hippeastrum